>NC_002947 Phage 3 putative half att sites
attL:	GATTTAGGTTCCAGCGGCGCAAGCTGTAAGAGTTCGAGTCTCTTCGTCCGCACCA	2586037 to 2586091
attR:	GATTTAGGTTCCAGCGGCGCAAGCTGTAAGAGTTCGAGTCTCTTCGTCCGCACCA	2626028 to 2626082
