NC_000117
NC_000853
NC_000907
NC_000908
NC_000911
NC_000912
NC_000913
NC_000915
NC_000918
NC_000919
NC_000921
NC_000922
NC_000962
NC_000963
NC_000964
NC_001263
NC_001264
NC_001318
NC_002162
NC_002163
NC_002179
NC_002488
NC_002491
NC_002505
NC_002506
NC_002516
NC_002528
NC_002570
NC_002620
NC_002655
NC_002662
NC_002663
NC_002677
NC_002678
NC_002695
NC_002696
NC_002737
NC_002745
NC_002755
NC_002758
NC_002771
NC_002929
NC_002932
NC_002935
NC_002936
NC_002937
NC_002939
NC_002940
NC_002942
NC_002944
NC_002945
NC_002946
NC_002947
NC_002950
NC_002951
NC_002952
NC_002953
NC_002967
NC_002971
NC_002973
NC_002976
NC_002977
NC_002978
NC_003028
NC_003030
NC_003047
NC_003062
NC_003063
NC_003098
NC_003103
NC_003112
NC_003116
NC_003143
NC_003155
NC_003197
NC_003198
NC_003210
NC_003212
NC_003228
NC_003272
NC_003295
NC_003304
NC_003305
NC_003317
NC_003318
NC_003361
NC_003366
NC_003450
NC_003454
NC_003485
NC_003869
NC_003888
NC_003902
NC_003909
NC_003910
NC_003911
NC_003912
NC_003919
NC_003923
NC_003997
NC_004061
NC_004070
NC_004088
NC_004113
NC_004116
NC_004129
NC_004193
NC_004307
NC_004310
NC_004311
NC_004337
NC_004342
NC_004343
NC_004344
NC_004347
NC_004350
NC_004368
NC_004369
NC_004431
NC_004432
NC_004459
NC_004460
NC_004461
NC_004463
NC_004545
NC_004547
NC_004551
NC_004552
NC_004556
NC_004557
NC_004567
NC_004572
NC_004578
NC_004603
NC_004605
NC_004606
NC_004631
NC_004663
NC_004668
NC_004722
NC_004741
NC_004757
NC_004829
NC_004842
NC_004917
NC_005027
NC_005042
NC_005043
NC_005061
NC_005070
NC_005071
NC_005072
NC_005085
NC_005090
NC_005125
NC_005126
NC_005139
NC_005140
NC_005295
NC_005296
NC_005303
NC_005362
NC_005363
NC_005364
NC_005773
NC_005810
NC_005823
NC_005824
NC_005835
NC_005861
NC_005945
NC_005955
NC_005956
NC_005957
NC_005966
NC_006055
NC_006085
NC_006086
NC_006087
NC_006138
NC_006142
NC_006155
NC_006156
NC_006177
NC_006270
NC_006274
NC_006300
NC_006322
NC_006347
NC_006348
NC_006349
NC_006350
NC_006351
NC_006360
NC_006361
NC_006368
NC_006369
NC_006370
NC_006371
NC_006448
NC_006449
NC_006461
NC_006510
NC_006511
NC_006512
NC_006513
NC_006526
NC_006570
NC_006576
NC_006582
NC_006677
NC_006814
NC_006831
NC_006832
NC_006833
NC_006834
NC_006840
NC_006841
NC_006905
NC_006908
NC_006932
NC_006933
NC_006958
NC_007005
NC_007086
NC_007109
NC_007146
NC_007164
NC_007168
NC_007204
NC_007205
NC_007292
NC_007294
NC_007295
NC_007296
NC_007297
NC_007298
NC_007332
NC_007333
NC_007335
NC_007347
NC_007348
NC_007350
NC_007354
NC_007356
NC_007384
NC_007404
NC_007406
NC_007413
NC_007429
NC_007432
NC_007434
NC_007435
NC_007481
NC_007482
NC_007484
NC_007492
NC_007493
NC_007494
NC_007498
NC_007503
NC_007508
NC_007509
NC_007510
NC_007511
NC_007512
NC_007513
NC_007514
NC_007516
NC_007517
NC_007519
NC_007520
NC_007530
NC_007575
NC_007576
NC_007577
NC_007604
NC_007606
NC_007613
NC_007614
NC_007618
NC_007622
NC_007626
NC_007633
NC_007643
NC_007644
NC_007645
NC_007650
NC_007651
NC_007677
NC_007705
NC_007712
NC_007716
NC_007722
NC_007759
NC_007775
NC_007776
NC_007777
NC_007778
NC_007793
NC_007794
NC_007795
