------------------------------------------------------------------------------------------------------------------------------------------------------------------------------------------------------------------
ORGANISM                                                     ACCESSION     SIZE     GC%    #  pgc%   end5      end3     loci                     ori #phgbp  Ty  class   att  target      In Co NC Ly Ta Mu dX   OC
...............................................................................................................................................................................................................
Bacillus anthracis str. Ames                                 NC_003997     5227293  35.38 1  35.31  447156    484430   BA0427-BA0486             +   37275   PRO LRG      Y    BA0426      1  7  0  0  3  0  231  57
Bacillus anthracis str. Ames                                 NC_003997     5227293  35.38 2  34.75  3514558   3441173  BA3742-BA3840             -   73386   PRO LRG      Y    N.D.        3  7  1  2  3  0  70   89
Bacillus anthracis str. Ames                                 NC_003997     5227293  35.38 3  34.99  3745558   3789875  BA4065-BA4135             +   44318   PRO LRG      Y    BA4135      3  9  2  2  4  0  207  70
Bacillus anthracis str. Ames                                 NC_003997     5227293  35.38 4  34.98  4858489   4841710  BA5339-BA5363             -   16780   PRO MED      Y    eno         2  8  0  0  0  0  249  24
Bacillus halodurans C-125                                    NC_002570     4202352  43.69 1  43.59  3652280   3617735  BH3508-BH3551             -   34546   PRO LRG      Y    tmRNA-1     1  5  1  0  3  0  158  44
Bacillus subtilis subsp. subtilis str. 168                   NC_000964     4214630  43.52 1  35.77  528923    549493   ydcL-yddM                 +   20571   PRO LRG SAT  Y    tRNA-Leu-4  1  0  0  1  0  0  143  24
Bacillus subtilis subsp. subtilis str. 168                   NC_000964     4214630  43.52 2  44.45  1313763   1356725  yjoB-ykcC                 +   42963   PRO LRG      N    N.D.        0  6  0  3  0  0  0    48
Bacillus subtilis subsp. subtilis str. 168                   NC_000964     4214630  43.52 3  34.64  2285644   2151229  yotN-yokA                 -   134416  PRO LRG      Y    N.D.        4  2  0  3  2  0  40   185
Bacillus subtilis subsp. subtilis str. 168                   NC_000964     4214630  43.52 4  39.32  2656042   2698469  yqcK-yqaE                 +   42428   PRO LRG      N    N.D.        0  6  1  3  1  0  0    56
Bifidobacterium longum NCC2705                               NC_004307     2256640  60.12 1  63.58  1295506   1313002  BL0367-BL0386             +   17497   PRO MED      Y    tRNA-Met-1  2  4  0  2  1  0  135  19
Campylobacter jejuni RM1221                                  NC_003912     1777831  30.31 1  30.61  207610    244132   CJE0215-CJE0273           +   36523   PRO LRG Mu   N    N.D.        0  3  2  0  7  2  0    59
Campylobacter jejuni RM1221                                  NC_003912     1777831  30.31 2  28.77  1335703   1371930  CJE1418-CJE1474           +   36228   PRO LRG      Y    tRNA-Met-2  1  6  3  0  1  0  223  57
Clostridium perfringens str. 13                              NC_003366     3031430  28.57 1  27.89  1303501   1339077  CPE1103-CPE1143           +   35577   PRO LRG      N    N.D.        0  12 0  1  4  0  0    42
Clostridium tetani E88                                       NC_004557     2799251  28.75 1  29.53  1138054   1167772  CTC01067-CTC01100         +   29719   PRO LRG      N    N.D.        0  4  0  0  1  0  0    32
Clostridium tetani E88                                       NC_004557     2799251  28.75 2  28.80  1696489   1663516  CTC01537-CTC01567         -   32974   PRO LRG      Y    CTC01569    3  4  1  0  3  0  187  28
Clostridium tetani E88                                       NC_004557     2799251  28.75 3  29.05  2243139   2281381  CTC02107-CTC02152         +   38243   PRO LRG      Y    tRNA-Leu-4  1  8  0  1  1  0  0    41
Desulfovibrio vulgaris subsp. vulgaris str. Hildenborough    NC_002937     3570858  63.14 1  63.62  270578    233143   NC_002937_tRNA-Pseudo-1-D -   37436   PRO LRG      Y    tRNA-Lys-1  1  3  1  2  6  0  153  48
Desulfovibrio vulgaris subsp. vulgaris str. Hildenborough    NC_002937     3570858  63.14 2  65.00  1204981   1240251  DVU1098-DVU1144           +   35271   PRO LRG Mu   N    N.D.        0  3  3  1  2  4  0    47
Desulfovibrio vulgaris subsp. vulgaris str. Hildenborough    NC_002937     3570858  63.14 3  58.17  1596092   1556471  DVU1476-DVU1527           -   39622   PRO LRG      Y    tRNA-Ser-4  1  10 1  1  0  0  190  52
Desulfovibrio vulgaris subsp. vulgaris str. Hildenborough    NC_002937     3570858  63.14 4  60.77  2250660   2304061  NC_002937_tRNA-Gly-3-NC_0 +   53402   PRO LRG      Y    tRNA-Gly-3  1  3  2  3  0  0  1036 58
Desulfovibrio vulgaris subsp. vulgaris str. Hildenborough    NC_002937     3570858  63.14 5  65.06  2799591   2833587  DVU2686-DVU2732           +   33997   PRO LRG Mu   N    N.D.        0  4  3  1  7  3  0    48
Desulfovibrio vulgaris subsp. vulgaris str. Hildenborough    NC_002937     3570858  63.14 6  62.54  2977702   2936186  DVU2828-DVU2881           -   41517   PRO LRG      Y    tRNA-Arg-5  1  3  1  2  6  0  286  54
Enterococcus faecalis V583                                   NC_004668     3218031  37.53 1  37.63  289300    326362   EF0303-NC_004668_tRNA-Met +   37063   PRO LRG      Y    pepC        1  3  2  0  3  0  54   53
Enterococcus faecalis V583                                   NC_004668     3218031  37.53 2  36.20  1415824   1459644  EF1451-EF1503             +   43821   PRO LRG      Y    tRNA-Lys-3  1  4  1  0  1  0  0    53
Enterococcus faecalis V583                                   NC_004668     3218031  37.53 3  33.47  1962559   1922618  EF1988-EF2043             -   39942   PRO LRG      Y    N.D.        1  3  1  2  4  0  74   46
Enterococcus faecalis V583                                   NC_004668     3218031  37.53 4  33.36  2004742   2048271  EF2084-EF2145             +   43530   PRO LRG SAT  Y    tRNA-Thr-2  1  0  0  1  0  0  125  62
Enterococcus faecalis V583                                   NC_004668     3218031  37.53 5  34.94  2736931   2700412  EF2798-EF2855             -   36520   PRO LRG      Y    rpmG        1  8  1  0  3  0  123  54
Escherichia coli CFT073                                      NC_004431     5231428  50.47 1  50.22  908948    945479   intT-ybjC                 +   36532   PRO LRG      Y    N.D.        1  9  0  1  14 0  384  52
Escherichia coli CFT073                                      NC_004431     5231428  50.47 2  50.09  1397105   1452282  c1516-c1602               +   55178   PRO LRG      Y    icdA        1  11 0  2  9  0  265  84
Escherichia coli CFT073                                      NC_004431     5231428  50.47 3  49.16  3018510   3067126  c3143-c3206               +   48617   PRO LRG      Y    tmRNA-1     2  10 0  1  10 0  1811 64
Escherichia coli K12                                         NC_000913     4639675  50.79 1  43.31  563978    585326   b0538-ompT                +   21349   PRO LRG      Y    tRNA-Arg-1  2  1  0  2  1  0  60   29
Escherichia coli K12                                         NC_000913     4639675  50.79 2  46.08  1209532   1195673  ymfD-pin                  -   13860   PRO MED      Y    N.D.        2  1  0  0  3  0  70   22
Escherichia coli K12                                         NC_000913     4639675  50.79 3  46.51  1433025   1409923  ydaO-ynaE                 -   23103   PRO LRG SAT  Y    ydaO        2  0  0  1  4  0  101  31
Escherichia coli K12                                         NC_000913     4639675  50.79 4  46.53  1631485   1662546  pinQ-ynfI                 +   31062   PRO LRG      Y    ynfI        2  1  0  1  3  0  161  45
Escherichia coli K12                                         NC_000913     4639675  50.79 5  44.12  2464376   2474312  intS-yfdT                 +   9937    PRO MED SAT  Y    tRNA-Arg-2  1  0  0  0  2  0  191  15
Escherichia coli O157:H7                                     NC_002695     5498450  50.54 1  43.50  300041    323539   ECs0271-ECs0304           +   23499   PRO LRG P2   Y    tRNA-Thr-1  3  0  0  0  3  0  31   31
Escherichia coli O157:H7                                     NC_002695     5498450  50.54 2  50.57  892240    925601   ECs0801-ECs0846           +   33362   PRO LRG      N    N.D.        0  6  0  2  12 0  0    45
Escherichia coli O157:H7                                     NC_002695     5498450  50.54 3  51.18  1210805   1161091  ECs1055-ECs1127           -   49715   PRO LRG      Y    tRNA-Ser-2  1  7  0  2  10 0  206  66
Escherichia coli O157:H7                                     NC_002695     5498450  50.54 4  50.37  1316408   1245903  ECs1160-ECs1259           -   70506   PRO LRG      Y    ECs1260     1  2  0  2  3  0  137  99
Escherichia coli O157:H7                                     NC_002695     5498450  50.54 5  49.93  1541332   1670351  ECs1500-ECs1675           +   129020  PRO LRG      Y    N.D.        4  29 2  4  21 0  294  173
Escherichia coli O157:H7                                     NC_002695     5498450  50.54 6  50.30  1757453   1815680  ECs1757-ECs1825           +   58228   PRO LRG      Y    ECs1756     2  8  2  2  7  0  96   61
Escherichia coli O157:H7                                     NC_002695     5498450  50.54 7  52.63  1940750   1987367  ECs1959-ECs2006           +   46618   PRO LRG      Y    tRNA-Arg-6  1  8  2  2  8  0  0    48
Escherichia coli O157:H7                                     NC_002695     5498450  50.54 8  52.74  2240563   2189516  tRNA-Arg-7-tRNA-Arg-8     -   51048   PRO LRG      Y    tRNA-Arg-8  1  18 2  4  19 0  1384 73
Escherichia coli O157:H7                                     NC_002695     5498450  50.54 9  50.10  2614141   2592901  ECs2617-ECs2646           -   21241   PRO LRG SAT  Y    tRNA-Leu-2  1  0  0  0  6  0  227  28
Escherichia coli O157:H7                                     NC_002695     5498450  50.54 10 52.02  2712096   2668007  ECs2714-ECs2773           -   44090   PRO LRG      Y    tRNA-Ser-4  2  6  0  2  10 0  113  56
Escherichia coli O157:H7                                     NC_002695     5498450  50.54 11 51.68  2943805   2895905  ECs2939-ECs3013           -   47901   PRO LRG      Y    N.D.        1  6  0  2  12 0  58   72
Escherichia coli O157:H7                                     NC_002695     5498450  50.54 12 39.56  3507992   3489954  ECs3504-ECs3517           -   18039   PRO LRG SAT  Y    tRNA-Met-1  2  0  0  0  1  0  9575 12
Escherichia coli O157:H7                                     NC_002695     5498450  50.54 13 53.74  5041814   5079469  ECs4944-ECs4998           +   37656   PRO LRG Mu   N    N.D.        1  4  1  1  8  4  0    56
Escherichia coli O157:H7 EDL933                              NC_002655     5528445  50.38 1  43.50  300042    323540   intH-Z0341                +   23499   PRO LRG P2   Y    tRNA-Thr-1  3  0  0  0  3  0  31   32
Escherichia coli O157:H7 EDL933                              NC_002655     5528445  50.38 2  49.31  892757    931359   Z0946-Z0990               +   38603   PRO LRG      Y    N.D.        2  5  0  2  12 0  88   42
Escherichia coli O157:H7 EDL933                              NC_002655     5528445  50.38 3  51.95  1295622   1250314  Z1323-Z1387               -   45309   PRO LRG      Y    tRNA-Ser-2  1  2  2  1  7  0  207  63
Escherichia coli O157:H7 EDL933                              NC_002655     5528445  50.38 4  49.90  1330720   1400180  intW-ycdC                 +   69461   PRO LRG      Y    N.D.        1  1  0  2  3  0  137  77
Escherichia coli O157:H7 EDL933                              NC_002655     5528445  50.38 5  48.24  1678525   1761710  Z1835-ycgN                +   83186   PRO LRG      Y    ycgN        3  23 2  2  14 0  181  99
Escherichia coli O157:H7 EDL933                              NC_002655     5528445  50.38 6  49.44  1866038   1893207  Z2063-tRNA-Met-6          +   27170   PRO LRG      Y    tRNA-Arg-5  1  8  1  2  10 0  0    40
Escherichia coli O157:H7 EDL933                              NC_002655     5528445  50.38 7  49.62  2115956   2165795  Z2337-ydaO                +   49840   PRO LRG      Y    ydaO        1  7  1  2  9  0  101  67
Escherichia coli O157:H7 EDL933                              NC_002655     5528445  50.38 8  51.93  2282874   2341960  Z6022-Z2583               +   59087   PRO LRG      Y    N.D.        1  7  2  2  7  0  75   68
Escherichia coli O157:H7 EDL933                              NC_002655     5528445  50.38 9  49.08  2668052   2712966  intT-fliE                 +   44915   PRO LRG      Y    fliF        2  1  0  0  7  0  287  55
Escherichia coli O157:H7 EDL933                              NC_002655     5528445  50.38 10 52.25  2788461   2743224  Z3071-intU                -   45238   PRO LRG      Y    tRNA-Ser-4  2  5  0  2  12 0  113  50
ORGANISM                                                     ACCESSION     SIZE     GC%    #  pgc%   end5      end3     loci                     ori #phgbp  Ty  class   att  target      In Co NC Ly Ta Mu dX   OC
...............................................................................................................................................................................................................
Escherichia coli O157:H7 EDL933                              NC_002655     5528445  50.38 11 51.66  3015072   2966136  Z3305-intV                -   48937   PRO LRG      Y    N.D.        1  8  1  2  7  0  58   64
Lactococcus lactis subsp. lactis Il1403                      NC_002662     2365589  35.33 1  35.06  28825     56382    mtlR-tRNA-Lys-1           +   27558   PRO LRG      Y    tRNA-Asn-1  1  1  0  0  0  0  6655 39
Lactococcus lactis subsp. lactis Il1403                      NC_002662     2365589  35.33 2  35.38  91052     110385   tra981A-relA              +   19334   DEG LRG      N    N.D.        0  0  0  0  0  0  0    0
Lactococcus lactis subsp. lactis Il1403                      NC_002662     2365589  35.33 3  36.85  137413    141192   ybdK-tra904C              +   3780    DEG SML      N    N.D.        0  0  0  0  0  0  0    0
Lactococcus lactis subsp. lactis Il1403                      NC_002662     2365589  35.33 4  33.44  211306    222766   ycbB-guaB                 +   11461   DEG MED      N    N.D.        0  0  0  0  0  0  0    0
Lactococcus lactis subsp. lactis Il1403                      NC_002662     2365589  35.33 5  35.68  447143    484094   pi101-NC_002662_tRNA-Unde +   36952   PRO LRG      Y    tRNA-Arg-2  1  12 1  4  5  0  93   56
Lactococcus lactis subsp. lactis Il1403                      NC_002662     2365589  35.33 6  36.26  620478    632941   recJ-ygdA                 +   12464   DEG MED      N    N.D.        0  0  0  0  1  0  0    0
Lactococcus lactis subsp. lactis Il1403                      NC_002662     2365589  35.33 7  36.24  835448    839708   yidE-tra904G              +   4261    DEG SML      N    N.D.        0  0  0  0  0  0  0    0
Lactococcus lactis subsp. lactis Il1403                      NC_002662     2365589  35.33 8  35.14  998162    1021496  prfB-ykcC                 +   23335   DEG LRG      N    N.D.        0  0  0  0  0  0  0    0
Lactococcus lactis subsp. lactis Il1403                      NC_002662     2365589  35.33 9  34.95  1036340   1093015  pi201-ykjB                +   56676   PRO LRG      Y    radC        1  9  1  3  3  0  302  84
Lactococcus lactis subsp. lactis Il1403                      NC_002662     2365589  35.33 10 35.31  1457116   1415289  pi303-pi360               -   41828   PRO LRG      Y    tmRNA-1     1  11 0  3  7  0  167  61
Lactococcus lactis subsp. lactis Il1403                      NC_002662     2365589  35.33 11 36.40  1555588   1566469  tra983F-purN              +   10882   DEG MED      N    N.D.        0  0  0  0  0  0  0    0
Lactococcus lactis subsp. lactis Il1403                      NC_002662     2365589  35.33 12 32.21  1745916   1750429  L200065-yrfA              +   4514    DEG SML      N    N.D.        0  0  0  0  0  0  0    0
Lactococcus lactis subsp. lactis Il1403                      NC_002662     2365589  35.33 13 34.56  2025690   1991306  ytjD-ps316                -   34385   IEL LRG      Y    N.D.        1  0  0  0  0  0  55   0
Lactococcus lactis subsp. lactis Il1403                      NC_002662     2365589  35.33 14 36.57  2155372   2159907  tra904H-secY              +   4536    DEG SML      N    N.D.        0  0  0  0  0  0  0    0
Lactococcus lactis subsp. lactis Il1403                      NC_002662     2365589  35.33 15 35.46  2210775   2216983  polA-yvjF                 +   6209    DEG SML      N    N.D.        0  0  0  0  0  0  0    0
Listeria innocua Clip11262                                   NC_003212     3011208  37.44 1  37.28  76060     115599   lin0071-lin0129           +   39540   PRO LRG      Y    tRNA-Lys-1  1  9  0  1  1  0  149  58
Listeria innocua Clip11262                                   NC_003212     3011208  37.44 2  34.65  1246350   1302845  lin1231-clpX              +   56496   PRO LRG      Y    N.D.        2  6  0  2  1  0  213  76
Listeria innocua Clip11262                                   NC_003212     3011208  37.44 3  35.87  1762464   1705608  lin1690-lin1765           -   56857   PRO LRG      Y    lin1689     2  3  0  2  0  0  375  76
Listeria innocua Clip11262                                   NC_003212     3011208  37.44 4  35.40  2446059   2395906  lin2365-int               -   50154   PRO LRG      Y    N.D.        2  4  0  2  1  0  168  61
Listeria innocua Clip11262                                   NC_003212     3011208  37.44 5  35.13  2625922   2587434  lin2561-lin2610           -   38489   PRO LRG      Y    tRNA-Arg-5  2  9  1  0  5  0  115  50
Listeria monocytogenes EGD-e                                 NC_003210     2944528  37.98 1  35.94  2402603   2358515  lmo2269-int               -   44089   PRO LRG      Y    N.D.        1  7  0  1  2  0  237  64
Mesorhizobium loti MAFF303099                                NC_002678     7036071  62.75 1  58.68  359840    309812   mll0428-mll0487           -   50029   IEL LRG      Y    N.D.        2  0  0  0  0  0  383  0
Mesorhizobium loti MAFF303099                                NC_002678     7036071  62.75 2  58.87  4835185   4788567  mlr5923-msr5974           -   46619   IEL LRG      Y    N.D.        6  0  0  0  0  0  31   0
Mesorhizobium loti MAFF303099                                NC_002678     7036071  62.75 3  61.09  4878837   4894733  mll6039-msl6054           +   15897   IEL LRG      Y    mlr6037     9  0  0  0  0  0  160  0
Mesorhizobium loti MAFF303099                                NC_002678     7036071  62.75 4  60.29  5051676   5038388  mll6220-mll6232           -   13289   IEL MED      Y    mll6220     5  0  0  0  0  0  243  0
Mesorhizobium loti MAFF303099                                NC_002678     7036071  62.75 5  56.39  6230898   6250708  mlr7549-mll7564           +   19811   DEG LRG      N    N.D.        0  0  0  0  0  0  0    0
Mesorhizobium loti MAFF303099                                NC_002678     7036071  62.75 6  60.23  6575119   6605246  tRNA-Arg-4-msr8019        +   30128   PRO LRG      Y    N.D.        1  1  0  0  0  0  176  39
Mesorhizobium loti MAFF303099                                NC_002678     7036071  62.75 7  60.90  6984118   7016855  mlr8517-mlr8553           +   32738   PRO LRG      N    N.D.        0  5  0  0  0  0  0    36
Methylococcus capsulatus str. Bath                           NC_002977     3304554  63.58 1  65.99  2819981   2874799  MCA2633-MCA2687           +   54819   PRO LRG      Y    N.D.        1  3  0  1  0  0  32   55
Methylococcus capsulatus str. Bath                           NC_002977     3304554  63.58 2  64.23  3091839   3147491  MCA2900-zwf_2             +   55653   PRO LRG Mu   N    N.D.        0  4  3  0  10 3  0    69
Mycobacterium tuberculosis CDC1551                           NC_002755     4403837  65.61 1  66.64  2966133   2975784  MT2723-MT2735             +   9652    PRO MED      Y    tRNA-Val-3  3  5  0  0  0  0  147  14
Mycobacterium tuberculosis CDC1551                           NC_002755     4403837  65.61 2  65.17  3870574   3896507  MT3573-MT3586             +   25934   PRO LRG      Y    N.D.        1  5  0  0  0  0  248  31
Mycobacterium tuberculosis H37Rv                             NC_000962     4411532  65.61 1  66.65  1788523   1771924  Rv1566c-Rv1586c           -   16600   PRO MED      Y    N.D.        1  5  0  0  0  0  18   21
Mycobacterium tuberculosis H37Rv                             NC_000962     4411532  65.61 2  66.32  2969989   2980998  Rv2645-Rv2659c            +   11010   PRO MED      Y    tRNA-Val-3  3  5  0  0  0  0  180  15
Pseudomonas putida KT2440                                    NC_002947     6181863  61.52 1  61.02  1777431   1737983  PP1532-PP1584             -   39449   PRO LRG      Y    PP1531      3  8  2  2  1  0  99   53
Pseudomonas putida KT2440                                    NC_002947     6181863  61.52 2  58.31  2586037   2626082  PP2266-PP2297             +   40046   PRO LRG SAT  Y    tRNA-Leu-2  1  0  0  1  0  0  263  32
Pseudomonas putida KT2440                                    NC_002947     6181863  61.52 3  61.61  3412988   3447235  PP3026-PP3066             +   34248   PRO LRG      N    N.D.        0  4  0  0  9  0  0    41
Pseudomonas putida KT2440                                    NC_002947     6181863  61.52 4  59.42  4427563   4371606  PP3849-PP3920             -   55958   PRO LRG      Y    tRNA-Cys-1  2  8  1  2  7  0  149  72
Pseudomonas syringae pv. tomato str. DC3000                  NC_004578     6397126  58.40 1  55.92  628136    647486   PSPTO0571-PSPTO0587       +   19351   PRO LRG      N    N.D.        3  1  0  0  2  0  0    17
Pseudomonas syringae pv. tomato str. DC3000                  NC_004578     6397126  58.40 2  57.05  3824685   3865368  PSPTO3385-PSPTO3430       +   40684   PRO LRG      Y    PSPTO3430   1  4  0  2  9  0  182  45
Pseudomonas syringae pv. tomato str. DC3000                  NC_004578     6397126  58.40 3  57.22  4458681   4445037  PSPTO3931-PSPTO3949       -   13645   PRO MED SAT  Y    tRNA-Ser-4  1  0  0  0  1  0  107  16
Pseudomonas syringae pv. tomato str. DC3000                  NC_004578     6397126  58.40 4  57.72  4542868   4563586  PSPTO4035-PSPTO4057       +   20719   PRO LRG      Y    mutS        2  2  0  0  0  0  91   23
Ralstonia solanacearum GMI1000                               NC_003295     3716413  67.04 1  64.49  942975    909375   RSc0875-RSc0895           -   33601   PRO LRG      Y    tmRNA-1     1  3  0  1  0  0  4011 21
Ralstonia solanacearum GMI1000                               NC_003295     3716413  67.04 2  65.30  1018664   981326   RSc0929-RSc0968           -   37339   PRO LRG SAT  Y    tRNA-Arg-1  1  0  0  1  0  0  191  40
Ralstonia solanacearum GMI1000                               NC_003295     3716413  67.04 3  65.14  1671159   1647746  RSc1542-NC_003295_tRNA-Ar -   23414   PRO LRG SAT  Y    N.D.        1  0  0  1  0  0  356  13
Ralstonia solanacearum GMI1000                               NC_003295     3716413  67.04 4  64.73  1781780   1824240  RSc1655-RSc1707           +   42461   PRO LRG      Y    tRNA-Leu-3  1  10 1  2  6  0  215  53
Ralstonia solanacearum GMI1000                               NC_003295     3716413  67.04 5  64.36  2084443   2125157  RSc1896-RSc1948           +   40715   PRO LRG      Y    tRNA-Ser-2  1  8  0  1  15 0  159  53
Ralstonia solanacearum GMI1000                               NC_003295     3716413  67.04 6  62.04  3430385   3468032  RSc3171-RSc3205           +   37648   PRO LRG SAT  Y    N.D.        1  0  0  1  0  0  10   35
Salmonella enterica subsp. enterica serovar Typhi str. CT18  NC_003198     4809037  52.09 1  51.08  1045191   1008467  int-STY1067               -   36725   PRO LRG      Y    pncB        1  4  1  1  2  0  280  56
Salmonella enterica subsp. enterica serovar Typhi str. CT18  NC_003198     4809037  52.09 2  45.60  1122071   1133009  putP-STY1169              +   10939   DEG MED      N    N.D.        0  0  0  0  0  0  0    0
Salmonella enterica subsp. enterica serovar Typhi str. CT18  NC_003198     4809037  52.09 3  54.75  1538899   1572919  STY1591-STY1643           +   34021   PRO LRG Mu   N    N.D.        1  5  0  0  17 2  0    52
Salmonella enterica subsp. enterica serovar Typhi str. CT18  NC_003198     4809037  52.09 4  47.82  1933643   1879753  STY2000-STY2077           -   53891   PRO LRG      Y    N.D.        2  4  1  3  2  0  85   75
Salmonella enterica subsp. enterica serovar Typhi str. CT18  NC_003198     4809037  52.09 5  54.34  2759379   2774080  STY2879-iroB              +   14702   PRO MED      Y    tmRNA-1     1  1  0  0  6  0  5309 12
Salmonella enterica subsp. enterica serovar Typhi str. CT18  NC_003198     4809037  52.09 6  53.29  2804753   2808492  nrdH-nrdF                 +   3740    DEG SML      N    N.D.        0  0  0  0  0  0  0    0
Salmonella enterica subsp. enterica serovar Typhi str. CT18  NC_003198     4809037  52.09 7  51.76  3541799   3492650  rfe-pin                   -   49150   PRO LRG      Y    N.D.        2  9  0  1  17 0  113  58
Salmonella enterica subsp. enterica serovar Typhi str. CT18  NC_003198     4809037  52.09 8  49.24  4543247   4461746  STY4586-NC_003198_tRNA-Ph -   81502   PRO LRG      Y    N.D.        5  9  0  1  16 0  334  90
Salmonella enterica subsp. enterica serovar Typhi str. CT18  NC_003198     4809037  52.09 9  48.45  4683670   4695087  STY4821-STY4833           +   11418   IEL MED P4   Y    tRNA-Leu-5  1  0  0  0  0  0  183  0
ORGANISM                                                     ACCESSION     SIZE     GC%    #  pgc%   end5      end3     loci                     ori #phgbp  Ty  class   att  target      In Co NC Ly Ta Mu dX   OC
...............................................................................................................................................................................................................
Salmonella typhimurium LT2                                   NC_003197     4857432  52.22 1  51.85  962430    1004496  STM0893-STM0929           +   42067   PRO LRG      Y    N.D.        1  5  0  3  13 0  182  42
Salmonella typhimurium LT2                                   NC_003197     4857432  52.22 2  51.08  1098179   1144034  STM1005-STM1056           +   45856   PRO LRG      Y    N.D.        1  5  0  4  14 0  49   54
Salmonella typhimurium LT2                                   NC_003197     4857432  52.22 3  48.09  2326826   2344711  STM2225-STM2242           +   17886   PRO MED      N    N.D.        0  2  0  1  3  0  0    18
Salmonella typhimurium LT2                                   NC_003197     4857432  52.22 4  51.09  2777063   2728534  gogB-STM2636              -   48530   PRO LRG      Y    lepA        1  10 0  4  14 0  247  53
Salmonella typhimurium LT2                                   NC_003197     4857432  52.22 5  52.49  2844265   2878004  STM2694-STM2739           +   33740   PRO LRG      Y    tmRNA-1     3  9  0  1  16 0  0    45
Salmonella typhimurium LT2                                   NC_003197     4857432  52.22 6  50.59  4417918   4438335  STM4196-STM4219.S         +   20418   PRO LRG      N    N.D.        0  1  0  1  10 0  0    24
Shewanella oneidensis MR-1                                   NC_004347     4969803  45.96 1  48.45  669361    709641   SO0641-SO0691             +   40281   PRO LRG Mu   N    N.D.        0  4  0  0  2  3  0    50
Shewanella oneidensis MR-1                                   NC_004347     4969803  45.96 2  47.25  2788307   2825616  SO2652-SO2704             +   37310   PRO LRG Mu   N    N.D.        0  4  0  0  6  4  0    54
Shewanella oneidensis MR-1                                   NC_004347     4969803  45.96 3  46.71  3126442   3074590  SO2938-SO3013             -   51853   PRO LRG      Y    SO3014      2  10 0  0  5  0  193  75
Shigella flexneri 2a str. 301                                NC_004337     4607203  50.89 1  45.93  311264    340154   SF0294-SF0329             +   28891   PRO LRG SAT  Y    tRNA-Thr-1  2  0  0  0  1  0  27   35
Shigella flexneri 2a str. 301                                NC_004337     4607203  50.89 2  52.21  696659    750736   SF0661-ipaH_1             +   54078   PRO LRG Mu   N    N.D.        0  13 1  1  10 3  0    63
Shigella flexneri 2a str. 301                                NC_004337     4607203  50.89 3  49.88  1175032   1201117  SF1132-SF1156             +   26086   PRO LRG      Y    N.D.        1  11 0  0  0  0  287  24
Shigella flexneri 2a str. 301                                NC_004337     4607203  50.89 4  52.13  1919854   1964934  SF1881-SF1929             +   45081   PRO LRG      N    N.D.        0  3  0  0  10 0  0    47
Shigella flexneri 2a str. 301                                NC_004337     4607203  50.89 5  48.27  2066786   2029271  yedA-SF2045               -   37516   PRO LRG      Y    N.D.        2  1  0  0  1  0  389  40
Shigella flexneri 2a str. 301                                NC_004337     4607203  50.89 6  49.42  2684565   2696926  SF2609-SF2623             +   12362   PRO MED SAT  Y    N.D.        1  0  0  1  1  0  367  15
Staphylococcus aureus subsp. aureus COL                      NC_002951     2809422  32.82 1  33.81  354674    398267   int-SACOL0389             +   43594   PRO LRG      Y    SACOL0317   1  7  2  2  2  0  111  72
Staphylococcus aureus subsp. aureus COL                      NC_002951     2809422  32.82 2  31.40  903332    919283   SACOL0885-SACOL0911       +   15952   PRO MED      Y    SACOL0884   1  1  0  0  0  0  159  27
Staphylococcus aureus subsp. aureus MW2                      NC_003923     2820462  32.83 1  32.70  1584431   1524640  fer-xerD                  -   59792   PRO LRG      Y    MW1452      3  7  2  2  2  0  118  80
Staphylococcus aureus subsp. aureus MW2                      NC_003923     2820462  32.83 2  32.14  2035775   2088875  MW1869-hlb                +   53101   PRO LRG      Y    hlb         1  15 0  3  5  0  126  71
Staphylococcus aureus subsp. aureus Mu50                     NC_002758     2878529  32.88 1  31.13  868372    894089   SAV0783-SAV0814           +   25718   PRO LRG      Y    N.D.        1  1  0  0  0  0  90   32
Staphylococcus aureus subsp. aureus Mu50                     NC_002758     2878529  32.88 2  34.03  917414    961983   int-SAV0917               +   44570   PRO LRG      Y    SAV0846     1  8  0  2  5  0  93   70
Staphylococcus aureus subsp. aureus Mu50                     NC_002758     2878529  32.88 3  33.21  2083115   2126181  SAV1940-truncated_hlb     +   43067   PRO LRG      Y    SAV1939     1  6  0  3  4  0  71   63
Staphylococcus aureus subsp. aureus N315                     NC_002745     2814816  32.84 1  31.99  2072446   2005190  SAS058-int                -   67257   PRO LRG      Y    groEL       2  7  0  3  5  0  174  90
Staphylococcus epidermidis RP62A                             NC_002976     2616530  32.15 1  30.55  1567637   1694334  SERP1501-SERP1654         +   126698  PRO LRG      Y    N.D.        5  1  0  2  2  0  131  154
Streptococcus agalactiae 2603V/R                             NC_004116     2160267  35.65 1  36.80  558767    599345   SAG0545-SAG0608           +   40579   PRO LRG SAT  Y    tRNA-Arg-3  1  0  0  2  3  0  59   62
Streptococcus agalactiae 2603V/R                             NC_004116     2160267  35.65 2  40.24  1833085   1867188  SAG1835-SAG1885           +   34104   PRO LRG      Y    tRNA-Cys-1  2  5  2  2  4  0  71   50
Streptococcus pyogenes M1 GAS                                NC_002737     1852441  38.51 1  39.25  529591    570509   int1-pepD                 +   40919   PRO LRG      Y    pepD        1  4  0  2  2  0  40   48
Streptococcus pyogenes M1 GAS                                NC_002737     1852441  38.51 2  37.97  778526    821010   int3-speH                 +   42485   PRO LRG      Y    N.D.        1  7  0  0  5  0  116  57
Streptococcus pyogenes M1 GAS                                NC_002737     1852441  38.51 3  37.98  1222863   1183952  SPy1427-int2              -   38912   PRO LRG SAT  Y    N.D.        1  0  0  2  1  0  314  52
Streptococcus pyogenes M1 GAS                                NC_002737     1852441  38.51 4  38.05  1774902   1753661  SPy2099-int4              -   21242   IEL LRG      Y    N.D.        1  0  0  0  0  0  299  0
Streptococcus pyogenes MGAS315                               NC_004070     1900521  38.59 1  37.88  749180    787900   SpyM3_0681-SpyM3_0735     +   38721   PRO LRG      Y    N.D.        2  3  1  2  4  0  33   55
Streptococcus pyogenes MGAS315                               NC_004070     1900521  38.59 2  38.26  977267    1018334  SpyM3_0919-intP           +   41068   PRO LRG      Y    tmRNA-1     1  9  1  2  4  0  141  60
Streptococcus pyogenes MGAS315                               NC_004070     1900521  38.59 3  38.00  1172182   1132382  SpyM3_1089-SpyM3_1145     -   39801   PRO LRG SAT  Y    N.D.        1  0  0  3  1  0  315  57
Streptococcus pyogenes MGAS315                               NC_004070     1900521  38.59 4  38.86  1271989   1221158  SpyM3_1195-int315.4       -   50832   PRO LRG      Y    msrA.1      1  5  0  0  2  0  174  72
Streptococcus pyogenes MGAS315                               NC_004070     1900521  38.59 5  38.08  1313194   1351399  SpyM3_1300-int315.5       +   38206   PRO LRG      Y    SpyM3       1  6  0  1  3  0  149  55
Streptococcus pyogenes MGAS315                               NC_004070     1900521  38.59 6  39.60  1450720   1401572  SpyM3_1399-int315.6       -   49149   PRO LRG      Y    SpyM3       1  8  0  2  5  0  262  60
Streptococcus pyogenes MGAS8232                              NC_003485     1895017  38.55 1  37.65  293806    354671   int-spyM18_0431           +   60866   PRO LRG      Y    N.D.        4  3  1  3  4  0  76   80
Streptococcus pyogenes MGAS8232                              NC_003485     1895017  38.55 2  38.16  578053    619120   int-MF2                   +   41068   PRO LRG      Y    spyM18      1  11 0  2  4  0  40   60
Streptococcus pyogenes MGAS8232                              NC_003485     1895017  38.55 3  37.64  1041142   1087880  spyM18_1237-int           +   46739   PRO LRG      Y    tmRNA-1     1  8  0  2  5  0  141  69
Streptococcus pyogenes MGAS8232                              NC_003485     1895017  38.55 4  37.69  1241522   1206171  spyM18_1444-int           -   35352   PRO LRG SAT  Y    N.D.        1  0  0  2  1  0  106  56
Streptococcus pyogenes MGAS8232                              NC_003485     1895017  38.55 5  38.12  1441660   1493558  spyM18_1733-int           +   51899   PRO LRG      Y    spyM18      1  5  0  0  1  0  185  67
Treponema denticola ATCC 35405                               NC_002967     2843201  37.87 1  37.03  1202635   1164700  TDE1133-TDE1173           -   37936   PRO LRG SAT  Y    tRNA-Met-1  1  0  0  0  1  0  224  41
Vibrio cholerae O1 biovar eltor str. N16961                  NC_002505     2961149  47.69 1  45.66  1564470   1584382  VC1453-VC1478             +   19913   DEG LRG      N    N.D.        0  0  0  0  0  0  0    0
Vibrio cholerae O1 biovar eltor str. N16961                  NC_002505     2961149  47.69 2  41.81  1935801   1952861  VC1785-VC1808             +   17061   DEG MED      N    N.D.        0  0  0  0  0  0  0    0
Vibrio cholerae O1 biovar eltor str. N16961                  NC_002505     2961149  47.69 3  48.29  2380542   2390102  VC2226-VC2234             +   9561    DEG SML      N    N.D.        0  0  0  0  0  0  0    0
Xanthomonas axonopodis pv. citri str. 306                    NC_003919     5175554  64.77 1  62.55  1259700   1198563  ppk-tRNA-Ser-2            -   61138   PRO LRG SAT  Y    N.D.        1  0  0  2  0  0  265  59
Xanthomonas axonopodis pv. citri str. 306                    NC_003919     5175554  64.77 2  62.40  3091075   3121181  uvrB-XAC2662              +   30107   PRO LRG      N    N.D.        0  8  0  1  6  0  0    38
Xanthomonas campestris pv. campestris str. ATCC 33913        NC_003902     5076188  65.07 1  61.76  3560388   3523026  XCC2962-int               -   37363   PRO LRG      Y    tRNA-Lys-2  1  9  0  1  14 0  190  51
Xylella fastidiosa 9a5c                                      NC_002488     2679306  52.67 1  57.88  486956    528528   XF0480-XF0534             +   41573   PRO LRG      Y    tRNA-Asn-1  1  3  1  1  0  0  101  55
Xylella fastidiosa 9a5c                                      NC_002488     2679306  52.67 2  56.07  649050    697044   NC_002488_tRNA-Val-1-XF07 +   47995   PRO LRG      Y    N.D.        1  6  1  1  11 0  65   64
Xylella fastidiosa 9a5c                                      NC_002488     2679306  52.67 3  57.66  1513956   1541351  XF1555-XF1599             +   27396   PRO LRG      Y    XF1554      2  3  0  1  0  0  391  45
Xylella fastidiosa 9a5c                                      NC_002488     2679306  52.67 4  55.25  1585873   1630687  XF1642-XF1710             +   44815   PRO LRG      Y    N.D.        2  3  0  1  2  0  107  69
Xylella fastidiosa 9a5c                                      NC_002488     2679306  52.67 5  56.52  2404570   2369149  XF2487-XF2530             -   35422   PRO LRG      Y    N.D.        2  6  1  1  11 0  302  44
Xylella fastidiosa Temecula1                                 NC_004556     2519802  51.78 1  57.04  453606    467733   D-int                     +   14128   PRO MED SAT  Y    lpxK        2  0  2  0  5  0  122  22
Xylella fastidiosa Temecula1                                 NC_004556     2519802  51.78 2  55.96  1227979   1181498  PD0985-PD1028             -   46482   PRO LRG      Y    PD0985      3  3  1  1  2  0  82   41
Xylella fastidiosa Temecula1                                 NC_004556     2519802  51.78 3  56.55  1331648   1287845  PD1087-int                -   43804   PRO LRG      Y    N.D.        2  5  1  1  10 0  107  53
Xylella fastidiosa Temecula1                                 NC_004556     2519802  51.78 4  55.65  1392848   1371315  btuE-int                  -   21534   PRO LRG SAT  Y    yheS        2  0  0  0  2  0  85   26
Xylella fastidiosa Temecula1                                 NC_004556     2519802  51.78 5  58.02  1858953   1835551  PD1588-PD1606             -   23403   PRO LRG      Y    PD1607      1  1  0  0  0  0  294  18
------------------------------------------------------------------------------------------------------------------------------------------------------------------------------------------------------------------
Out of 42 genomes processed, there are 174 putative prophages > 18 kb, totalling 6555993 bp in size and  4.17% of the bacterial genomes analyzed or 4.14 phage per genome on average

Of those 42 genomes with prophages, the phage constitute  4.17% of the chromosomal DNA, averaging 4.14 phage per genome
There are a total of 132 out of 174 phages with att sites with an average distance from integrase to att site of 544.51 bp
There were 9 ( 5.17%) Mu-like Phages!
Target distribution:
Arg = 10
Asn = 2
Cys = 2
Gly = 1
Leu = 6
Lys = 4
Met = 4
ND = 37
Ser = 7
Thr = 4
Val = 2
genes = 42
intergenic = 45
tmRNA = 8
-----------
Total = 174
