Salmonella typhimurium LT2, complete genome [asmbl_id: NC_003197], 4857432, gc%: 52.22%
Large prophage region 1 is from 962612 to 1009056 or (962430 to 1004496) and is 46445 (42067) bp in size, gc%: 51.85%.

END5     FEATNAME           ANNOTATION OF BEST HIT FROM PHAGE DB, [ANNO]TATION, OR [HMM] HIT                                                                       PAGE: 1
............................................................................................................................................................................

962430   attL_1             ATTATCTTTGTA
963937   STM0893_gi16764254 Sa, TAG = PHAGE_coliph_VT2, E-VALUE = 1e-167
                            [ANNO] putative integrase
                            [HMM-GLOCAL] (PF00589): Phage_integrase: Phage integrase family, SCORE = 43.9, TRUSTED = -39.0, NOISE = -44.2
964207   STM0894_gi16764255 Sa, TAG = PHAGE_coliph_VT2, E-VALUE = 2e-24
                            [ANNO] putative excisionase
                            [HMM-GLOCAL] (PF06806): DUF1233: Putative excisionase (DUF1233), SCORE = 206.6, TRUSTED = -4.3, NOISE = -19.9
964361   STM0895.1n_gi39980 gi|31044228|ref|NP_851942.1|, TAG = PHAGE_coliph_phi4795, E-VALUE = 4e-19
                            [ANNO] hypothetical protein
964881   STM0895_gi16764256 gi|62362249|ref|YP_224174.1|, TAG = PHAGE_salmon_ES18, E-VALUE = 3e-12
                            [ANNO] hypothetical protein
965733   STM0896_gi16764257 gi|13095686|ref|NP_076578.1|, TAG = PHAGE_lactoc_bIL285, E-VALUE = 2e-15
                            [ANNO] hypothetical protein
966725   STM0897_gi16764258 [ANNO] hypothetical protein
968606   STM0898_gi16764259 gi|23505482|ref|NP_700411.1|, TAG = PHAGE_salmon_ST64B, E-VALUE = 3e-59
                            [ANNO] putative transcriptional regulator
968719   STM0898A_gi1676426 gi|23505483|ref|NP_700412.1|, TAG = PHAGE_salmon_ST64B, E-VALUE = 8e-13
                            [ANNO] hypothetical protein
969473   STM0899_gi16764261 [ANNO] hypothetical protein
969999   STM0900_gi16764262 gi|22296555|ref|NP_680515.1|, TAG = PHAGE_lactob_A2, E-VALUE = 3e-31
                            [ANNO] putative helicase
971579   STM0901_gi16764263 ORF0012, TAG = PHAGE_coliph_R73, E-VALUE = 2e-17
                            [ANNO] putative phage dna primase
972547   STM0902_gi16764264 [ANNO] hypothetical protein
973404   STM0903_gi16764265 gi|46358687|ref|YP_006395.1|, TAG = PHAGE_salmon_ST104, E-VALUE = 6e-41
                            [ANNO] putative chaparone
974766   STM0904_gi16764266 [ANNO] hypothetical protein
975824   STM0905_gi16764267 [ANNO] hypothetical protein
                            [HMM-GLOCAL] (PF05666): Fels1: Fels-1 Prophage Protein-like, SCORE = 225.6, TRUSTED = 218.0, NOISE = -0.5
976812   STM0906_gi16764268 gi|23505495|ref|NP_700424.1|, TAG = PHAGE_salmon_ST64B, E-VALUE = 5e-47
                            [ANNO] hypothetical protein
                            [HMM-GLOCAL] (TIGR01594): holin_lambda: phage holin, lambda family, SCORE = 114.7, TRUSTED = 30.0, NOISE = 0.0
                            [HMM-GLOCAL] (PF05106): Phage_holin_3: Phage holin family (Lysis protein S), SCORE = 30.8, TRUSTED = 30.8, NOISE = -1.1
977159   STM0907_gi16764269 gi|23505496|ref|NP_700425.1|, TAG = PHAGE_salmon_ST64B, E-VALUE = 7e-110
                            [ANNO] putative chitinase
977770   STM0908_gi16764270 gi|23505497|ref|NP_700426.1|, TAG = PHAGE_salmon_ST64B, E-VALUE = 2e-82
                            [ANNO] hypothetical protein bacteriophage es18 gp15 protein (gi|1143595)
                            [HMM-GLOCAL] (PF03245): Phage_lysis: Bacteriophage lysis protein, SCORE = 321.9, TRUSTED = -49.8, NOISE = -50.6
979090   STM0909_gi16764271 [ANNO] hypothetical protein
979568   STM0910_gi16764272 gi|34610172|ref|NP_918997.1|, TAG = PHAGE_Burkho_BcepNazgul, E-VALUE = 7e-71
                            [ANNO] hypothetical protein {Terminase BLAST PHAGE_wolbac_wKue_WO_INCOM-gi6723244} {Terminase HMM PF05876}
                            [HMM-GLOCAL] (PF05876): Terminase_GpA: Phage terminase large subunit (GpA), SCORE = 1345.2, TRUSTED = 265.6, NOISE = -326.0
981876   STM0911_gi16764273 gi|6723246|dbj|BAA89642.1|, TAG = PHAGE_wolbac_wKue_WO_INCOM, E-VALUE = 1e-33
                            [ANNO] hypothetical protein {Portal HMM PF05136} {Portal HMM TIGR01539}
                            [HMM-GLOCAL] (PF05136): Phage_portal_2: Phage portal protein, lambda family, SCORE = 402.3, TRUSTED = -43.3, NOISE = -139.0
                            [HMM-GLOCAL] (TIGR01539): portal_lambda: phage portal protein, lambda family, SCORE = 950.0, TRUSTED = 0.0, NOISE = -220.0
983263   STM0912_gi16764274 gi|17488507|ref|NP_510985.1|, TAG = PHAGE_lister_PSA, E-VALUE = 9e-32
                            [ANNO] atp-dependent protease
985514   STM0913.1N_gi39546 [ANNO] hypothetical protein
985854   STM0913.2N_gi39546 [ANNO] hypothetical protein
986133   STM0914_gi16764276 gi|9630476|ref|NP_046906.1|, TAG = PHAGE_coliph_N15, E-VALUE = 9e-50
                            [ANNO] putative phage tail component
                            [HMM-GLOCAL] (PF06763): Minor_tail_Z: Prophage minor tail protein Z (GPZ), SCORE = 490.4, TRUSTED = 383.4, NOISE = -72.3
986134   STM0913_gi16764275 [ANNO] hypothetical protein
986714   STM0915_gi16764277 gi|9630477|ref|NP_046907.1|, TAG = PHAGE_coliph_N15, E-VALUE = 3e-37
                            [ANNO] hypothetical protein
                            [HMM-GLOCAL] (PF06141): Phage_tail_U: Phage minor tail protein U, SCORE = 372.6, TRUSTED = 219.2, NOISE = -81.8
987126   STM0916_gi16764278 gi|9630478|ref|NP_046908.1|, TAG = PHAGE_coliph_N15, E-VALUE = 4e-83
                            [ANNO] putative major tail protein
                            [HMM-GLOCAL] (PF02368): Big_2: Bacterial Ig-like domain (group 2), SCORE = 36.7, TRUSTED = 26.6, NOISE = 23.5
987914   STM0916.1N_gi39546 gi|9630473|ref|NP_046909.1|, TAG = PHAGE_coliph_N15, E-VALUE = 5e-09
Salmonella typhimurium LT2, complete genome [asmbl_id: NC_003197], 4857432, gc%: 52.22%
Large prophage region 1 is from 962612 to 1009056 or (962430 to 1004496) and is 46445 (42067) bp in size, gc%: 51.85%.

END5     FEATNAME           ANNOTATION OF BEST HIT FROM PHAGE DB, [ANNO]TATION, OR [HMM] HIT                                                                       PAGE: 2
............................................................................................................................................................................
                            [ANNO] hypothetical protein
                            [HMM-GLOCAL] (TIGR01674): phage_lambda_G: phage minor tail protein G, SCORE = 179.7, TRUSTED = 20.0, NOISE = -40.0
                            [HMM-GLOCAL] (PF06894): Phage_lambd_GpG: Bacteriophage lambda minor tail protein (GpG), SCORE = 240.5, TRUSTED = 277.7, NOISE = -62.8
988336   STM0917_gi16764279 gi|9630479|ref|NP_046910.1|, TAG = PHAGE_coliph_N15, E-VALUE = 3e-16
                            [ANNO] putative minor tail protein
                            [HMM-GLOCAL] (PF06223): Phage_tail_T: Minor tail protein T, SCORE = 246.8, TRUSTED = 180.4, NOISE = -32.8
                            [HMM-GLOCAL] (TIGR01715): phage_lam_T: phage tail assembly protein T, SCORE = 195.8, TRUSTED = 40.0, NOISE = 5.0
988625   STM0918_gi16764280 gi|9626259|ref|NP_040595.1|, TAG = PHAGE_coliph_lambda, E-VALUE = 5e-63
                            [ANNO] putative minor tail protein
                            [HMM-GLOCAL] (TIGR01541): tape_meas_lam_C: phage tail tape measure protein, lambda family, SCORE = 397.9, TRUSTED = 40.0, NOISE = -125.0
                            [HMM-GLOCAL] (PF06791): TMP_2: Prophage tail length tape measure protein, SCORE = 341.0, TRUSTED = 28.2, NOISE = -60.7
991786   STM0919_gi16764281 gi|9626260|ref|NP_040596.1|, TAG = PHAGE_coliph_lambda, E-VALUE = 2e-29
                            [ANNO] putative minor tail protein
                            [HMM-GLOCAL] (PF05939): Phage_min_tail: Phage minor tail protein, SCORE = 240.6, TRUSTED = 188.3, NOISE = -31.7
992242   STM0920_gi16764282 Sa, TAG = PHAGE_coliph_VT2, E-VALUE = 1e-11
                            [ANNO] ail/ompx-like protein
992892   STM0921_gi16764283 gi|9626261|ref|NP_040597.1|, TAG = PHAGE_coliph_lambda, E-VALUE = 1e-98
                            [ANNO] putative minor tail protein
                            [HMM-GLOCAL] (PF05100): Phage_tail_L: Phage minor tail protein L, SCORE = 426.8, TRUSTED = 100.7, NOISE = -98.9
                            [HMM-GLOCAL] (TIGR01600): phage_tail_L: phage minor tail protein L, SCORE = 414.0, TRUSTED = 50.0, NOISE = 15.0
993599   STM0922_gi16764284 gi|9626262|ref|NP_040598.1|, TAG = PHAGE_coliph_lambda, E-VALUE = 5e-96
                            [ANNO] putative phage tail assembly protein
994231   STM0923_gi16764285 gi|9626263|ref|NP_040599.1|, TAG = PHAGE_coliph_lambda, E-VALUE = 5e-91
                            [ANNO] putative phage tail assembly protein
                            [HMM-GLOCAL] (PF06805): Lambda_tail_I: Bacteriophage lambda tail assembly protein I, SCORE = 443.2, TRUSTED = 292.5, NOISE = -69.9
995486   STM0924_gi16764286 [ANNO] putative cuzn superoxide dismutase
995631   STM0925.S_gi395463 gi|9626264|ref|NP_040600.1|, TAG = PHAGE_coliph_lambda, E-VALUE = 0.0
                            [ANNO] putative host-specificity protein
999070   STM0926_gi16764288 gi|9632629|ref|NP_049863.1|, TAG = PHAGE_coliph_T4, E-VALUE = 2e-63
                            [ANNO] putative minor tail protein
                            [HMM-GLOCAL] (PF03406): Phage_fiber_2: Phage tail fiber repeat, SCORE = 62.3, TRUSTED = 25.1, NOISE = 22.4
                            [HMM-GLOCAL] (PF07484): Collar: Phage Tail Collar Domain, SCORE = 78.3, TRUSTED = 31.2, NOISE = 14.9
1001442  STM0927_gi16764289 gi|9626269|ref|NP_040605.1|, TAG = PHAGE_coliph_lambda, E-VALUE = 3e-65
                            [ANNO] putative phage tail assembly protein
                            [HMM-GLOCAL] (PF02413): Caudo_TAP: Domain of unknown function DUF144, SCORE = 213.5, TRUSTED = 36.0, NOISE = 22.6
1003326  nanH_gi16764290    [ANNO] neuraminidase sialidase (sw nanh_salty)
1004271  STM0929_gi16764291 [ANNO] putative inner membrane protein
1004485  attR_1             ATTATCTTTGTA
----------------------------------------------------------------------------------------------------------------------------------------------------------------------------
Salmonella typhimurium LT2, complete genome [asmbl_id: NC_003197], 4857432, gc%: 52.22%
Large prophage region 2 is from 1098228 to 1143714 or (1098179 to 1144034) and is 45487 (45856) bp in size, gc%: 51.08%.

END5     FEATNAME           ANNOTATION OF BEST HIT FROM PHAGE DB, [ANNO]TATION, OR [HMM] HIT                                                                       PAGE: 3
............................................................................................................................................................................

1098179  attL_2             TTATAAAAATGTAGC
1099520  STM1005_gi16764365 gi|31044226|ref|NP_851940.1|, TAG = PHAGE_coliph_phi4795, E-VALUE = 5e-167
                            [ANNO] integrase
                            [HMM-GLOCAL] (PF00589): Phage_integrase: Phage integrase family, SCORE = 39.4, TRUSTED = -39.0, NOISE = -44.2
1099813  STM1006_gi16764366 gi|18249866|ref|NP_543054.1|, TAG = PHAGE_coliph_P27, E-VALUE = 5e-33
                            [ANNO] excisionase
                            [HMM-GLOCAL] (PF06806): DUF1233: Putative excisionase (DUF1233), SCORE = 209.9, TRUSTED = -4.3, NOISE = -19.9
1100093  STM1007_gi16764367 [ANNO] hypothetical protein
1101245  STM1008.S_gi395463 [ANNO] hypothetical protein hypothetical protein aac26069.1 (gi|7467267)
1104141  STM1009_gi16764369 [ANNO] exodeoxyribonuclease
1104567  STM1010_gi16764370 [ANNO] hypothetical protein
1104747  STM1010.1n_gi39546 [ANNO] hypothetical protein
1105000  STM1011_gi16764371 [ANNO] hypothetical protein
1105460  STM1012_gi16764372 [ANNO] probable regulatory protein probable regulatory protein (gi|7467281)
1105785  STM1013_gi16764373 [ANNO] probable regulatory protein probable regulatory protein (gi|7467282)
1106244  STM1014_gi16764374 19B, TAG = PHAGE_coliph_H, E-VALUE = 6e-21
                            [ANNO] probable regulatory protein probable replication protein (gi|7467283)
                            [HMM-GLOCAL] (TIGR01610): phage_O_Nterm: phage replication protein O, N-terminal domain, SCORE = 128.9, TRUSTED = 20.0, NOISE = -10.0
                            [HMM-GLOCAL] (PF04492): Phage_rep_O: Bacteriophage replication protein O, SCORE = 684.2, TRUSTED = -26.7, NOISE = -77.9
1107230  STM1015_gi16764375 gi|38640334|ref|NP_944257.1|, TAG = PHAGE_burkho_Bcep22, E-VALUE = 9e-30
                            [ANNO] dna replication initiation atpase
1107990  STM1016_gi16764376 [ANNO] hypothetical protein
1108334  STM1017_gi16764377 gi|24371546|ref|NP_720286.1|, TAG = PHAGE_salmon_ST64T, E-VALUE = 5e-30
                            [ANNO] hypothetical protein
1108723  STM1018_gi16764378 [ANNO] hypothetical protein
1109305  STM1019_gi16764379 gi|41057390|ref|NP_958095.1|, TAG = PHAGE_salmon_PSP3, E-VALUE = 8e-10
                            [ANNO] hypothetical protein
1109954  STM1020_gi16764380 gi|9635667|ref|NP_061575.1|, TAG = PHAGE_pseudo_D3, E-VALUE = 6e-36
                            [ANNO] hypothetical protein
                            [HMM-GLOCAL] (PF07105): DUF1367: Protein of unknown function (DUF1367), SCORE = 561.6, TRUSTED = 34.5, NOISE = -103.8
1110765  STM1021_gi16764381 gi|46358683|ref|YP_006391.1|, TAG = PHAGE_salmon_ST104, E-VALUE = 5e-47
                            [ANNO] hypothetical protein
                            [HMM-GLOCAL] (PF05766): NinG: Bacteriophage Lambda NinG protein, SCORE = 476.7, TRUSTED = 34.2, NOISE = -104.5
1111373  STM1021.1n_gi39980 [ANNO] hypothetical protein
1111509  STM1022_gi16764382 gi|62362286|ref|YP_224211.1|, TAG = PHAGE_salmon_ES18, E-VALUE = 2e-45
                            [ANNO] putative molecular chaperone dnaj family
1112373  STM1023_gi16764383 [ANNO] hypothetical protein
1112864  STM1024_gi16764384 [ANNO] hypothetical protein
1113574  STM1025_gi16764385 [ANNO] hypothetical protein
1114447  STM1026_gi16764386 [ANNO] hypothetical protein
                            [HMM-GLOCAL] (PF07108): PipA: PipA protein, SCORE = 409.8, TRUSTED = 409.8, NOISE = -59.9
1114978  STM1027_gi16764387 gi|19549036|ref|NP_599081.1|, TAG = PHAGE_shigel_SfV, E-VALUE = 6e-10
                            [ANNO] hypothetical protein
                            [HMM-GLOCAL] (TIGR01594): holin_lambda: phage holin, lambda family, SCORE = 121.4, TRUSTED = 30.0, NOISE = 0.0
                            [HMM-GLOCAL] (PF05106): Phage_holin_3: Phage holin family (Lysis protein S), SCORE = 41.4, TRUSTED = 30.8, NOISE = -1.1
1115210  STM1028_gi16764388 gi|1429244|emb|CAA67646.1|, TAG = PHAGE_bacill_B103, E-VALUE = 3e-34
                            [ANNO] lysozyme
                            [HMM-GLOCAL] (PF00959): Phage_lysozyme: Phage lysozyme, SCORE = 120.0, TRUSTED = 34.0, NOISE = 23.1
1115680  STM1029_gi16764389 gi|62362290|ref|YP_224215.1|, TAG = PHAGE_salmon_ES18, E-VALUE = 1e-61
                            [ANNO] hypothetical protein bacteriophage es18 gp15 protein (gi|1143595)
                            [HMM-GLOCAL] (PF03245): Phage_lysis: Bacteriophage lysis protein, SCORE = 303.3, TRUSTED = -49.8, NOISE = -50.6
1116367  STM1030_gi16764390 [ANNO] hypothetical protein
1116857  STM1031_gi16764391 gi|34610172|ref|NP_918997.1|, TAG = PHAGE_Burkho_BcepNazgul, E-VALUE = 8e-70
                            [ANNO] hypothetical protein {Terminase BLAST PHAGE_wolbac_wKue_WO_INCOM-gi6723244} {Terminase HMM PF05876}
                            [HMM-GLOCAL] (PF05876): Terminase_GpA: Phage terminase large subunit (GpA), SCORE = 1361.0, TRUSTED = 265.6, NOISE = -326.0
1119429  STM1032_gi16764392 gi|6723246|dbj|BAA89642.1|, TAG = PHAGE_wolbac_wKue_WO_INCOM, E-VALUE = 1e-32
                            [ANNO] hypothetical protein {Portal HMM PF05136} {Portal HMM TIGR01539}
                            [HMM-GLOCAL] (PF05136): Phage_portal_2: Phage portal protein, lambda family, SCORE = 278.0, TRUSTED = -43.3, NOISE = -139.0
                            [HMM-GLOCAL] (TIGR01539): portal_lambda: phage portal protein, lambda family, SCORE = 563.2, TRUSTED = 0.0, NOISE = -220.0
1120666  STM1033_gi16764393 gi|12719432|ref|NP_075503.1|, TAG = PHAGE_staphy_phiSLT, E-VALUE = 3e-32
                            [ANNO] clp protease-like protein
Salmonella typhimurium LT2, complete genome [asmbl_id: NC_003197], 4857432, gc%: 52.22%
Large prophage region 2 is from 1098228 to 1143714 or (1098179 to 1144034) and is 45487 (45856) bp in size, gc%: 51.08%.

END5     FEATNAME           ANNOTATION OF BEST HIT FROM PHAGE DB, [ANNO]TATION, OR [HMM] HIT                                                                       PAGE: 4
............................................................................................................................................................................
1122838  STM1034_gi16764394 [ANNO] putative reca/rada recombinase
1123154  STM1035_gi16764395 [ANNO] atp-binding sugar transporter-like protein
1123434  STM1036_gi16764396 gi|9630476|ref|NP_046906.1|, TAG = PHAGE_coliph_N15, E-VALUE = 1e-28
                            [ANNO] probable minor tail protein
                            [HMM-GLOCAL] (PF06763): Minor_tail_Z: Prophage minor tail protein Z (GPZ), SCORE = 406.8, TRUSTED = 383.4, NOISE = -72.3
1123997  STM1037_gi16764397 gi|9630477|ref|NP_046907.1|, TAG = PHAGE_coliph_N15, E-VALUE = 5e-42
                            [ANNO] probable minor tail protein
                            [HMM-GLOCAL] (PF06141): Phage_tail_U: Phage minor tail protein U, SCORE = 361.4, TRUSTED = 219.2, NOISE = -81.8
1124410  STM1038_gi16764398 gi|9630478|ref|NP_046908.1|, TAG = PHAGE_coliph_N15, E-VALUE = 2e-82
                            [ANNO] probable major tail protein
                            [HMM-GLOCAL] (PF02368): Big_2: Bacterial Ig-like domain (group 2), SCORE = 42.5, TRUSTED = 26.6, NOISE = 23.5
1125205  STM1039_gi16764399 gi|9630473|ref|NP_046909.1|, TAG = PHAGE_coliph_N15, E-VALUE = 4e-09
                            [ANNO] probable minor tail protein
                            [HMM-GLOCAL] (TIGR01674): phage_lambda_G: phage minor tail protein G, SCORE = 313.4, TRUSTED = 20.0, NOISE = -40.0
                            [HMM-GLOCAL] (PF06894): Phage_lambd_GpG: Bacteriophage lambda minor tail protein (GpG), SCORE = 290.4, TRUSTED = 277.7, NOISE = -62.8
1125600  STM1040_gi16764400 gi|9626258|ref|NP_040594.1|, TAG = PHAGE_coliph_lambda, E-VALUE = 3e-17
                            [ANNO] probable minor tail protein
                            [HMM-GLOCAL] (PF06223): Phage_tail_T: Minor tail protein T, SCORE = 254.2, TRUSTED = 180.4, NOISE = -32.8
                            [HMM-GLOCAL] (TIGR01715): phage_lam_T: phage tail assembly protein T, SCORE = 280.0, TRUSTED = 40.0, NOISE = 5.0
1126009  STM1041_gi16764401 gi|32128430|ref|NP_858965.1|, TAG = PHAGE_xantho_Xp10, E-VALUE = 3e-64
                            [ANNO] probable minor tail protein
                            [HMM-GLOCAL] (TIGR01541): tape_meas_lam_C: phage tail tape measure protein, lambda family, SCORE = 612.2, TRUSTED = 40.0, NOISE = -125.0
                            [HMM-GLOCAL] (PF06791): TMP_2: Prophage tail length tape measure protein, SCORE = 316.7, TRUSTED = 28.2, NOISE = -60.7
1128993  STM1042_gi16764402 gi|9626260|ref|NP_040596.1|, TAG = PHAGE_coliph_lambda, E-VALUE = 1e-33
                            [ANNO] probable minor tail protein
                            [HMM-GLOCAL] (PF05939): Phage_min_tail: Phage minor tail protein, SCORE = 242.6, TRUSTED = 188.3, NOISE = -31.7
1129424  STM1043_gi16764403 Sa, TAG = PHAGE_coliph_VT2, E-VALUE = 6e-12
                            [ANNO] attachment/invasion protein
1130586  sodC_gi16764404    [ANNO] superoxide dismutase precursor superoxide dismutase cuzn precursor (sw sodc_salty) important virulence function implicated in defence ...
1130676  STM1045_gi16764405 gi|9626261|ref|NP_040597.1|, TAG = PHAGE_coliph_lambda, E-VALUE = 4e-93
                            [ANNO] probable minor tail protein
                            [HMM-GLOCAL] (PF05100): Phage_tail_L: Phage minor tail protein L, SCORE = 494.1, TRUSTED = 100.7, NOISE = -98.9
                            [HMM-GLOCAL] (TIGR01600): phage_tail_L: phage minor tail protein L, SCORE = 382.5, TRUSTED = 50.0, NOISE = 15.0
1131381  STM1046_gi16764406 gi|9626262|ref|NP_040598.1|, TAG = PHAGE_coliph_lambda, E-VALUE = 1e-92
                            [ANNO] probable tail assembly protein
1132016  STM1047_gi16764407 gi|9626263|ref|NP_040599.1|, TAG = PHAGE_coliph_lambda, E-VALUE = 5e-72
                            [ANNO] probable tail assembly protein
                            [HMM-GLOCAL] (PF06805): Lambda_tail_I: Bacteriophage lambda tail assembly protein I, SCORE = 391.1, TRUSTED = 292.5, NOISE = -69.9
1132792  STM1048_gi16764408 gi|9626264|ref|NP_040600.1|, TAG = PHAGE_coliph_lambda, E-VALUE = 0.0
                            [ANNO] host specificity protein j
1135266  STM1048.1N_gi39546 gi|9626264|ref|NP_040600.1|, TAG = PHAGE_coliph_lambda, E-VALUE = 1e-65
                            [ANNO] hypothetical protein
1136476  STM1049_gi16764409 gi|9632629|ref|NP_049863.1|, TAG = PHAGE_coliph_T4, E-VALUE = 3e-63
                            [ANNO] probable tail fiber protein
                            [HMM-GLOCAL] (PF03406): Phage_fiber_2: Phage tail fiber repeat, SCORE = 63.9, TRUSTED = 25.1, NOISE = 22.4
                            [HMM-GLOCAL] (PF07484): Collar: Phage Tail Collar Domain, SCORE = 76.0, TRUSTED = 31.2, NOISE = 14.9
                            [HMM-GLOCAL] (PF03335): Phage_fiber: Phage tail fiber repeat, SCORE = 27.5, TRUSTED = 26.4, NOISE = 23.8
1138914  STM1050_gi16764410 gi|9626269|ref|NP_040605.1|, TAG = PHAGE_coliph_lambda, E-VALUE = 3e-68
                            [ANNO] tail fiber assembly like-protein
                            [HMM-GLOCAL] (PF02413): Caudo_TAP: Domain of unknown function DUF144, SCORE = 234.1, TRUSTED = 36.0, NOISE = 22.6
1139971  sseI_gi16764411    [ANNO] secreted effector protein secreted effector i (gi|8927434) secreted by spi-2 colocalizes with host polymerizing actin cytoskeleton
1142213  STM1053_gi16764412 gi|56692976|ref|YP_164331.1|, TAG = PHAGE_pseudo_F116, E-VALUE = 7e-32
                            [ANNO] hypothetical protein
1142581  STM1054_gi16764413 [ANNO] hypothetical protein
1143252  STM1055_gi16764414 [ANNO] hypothetical protein
1143714  STM1056_gi16764415 gi|46402108|ref|YP_006602.1|, TAG = PHAGE_klebsi_phiKO2, E-VALUE = 7e-17
                            [ANNO] msga-like protein
1144020  attR_2             TTATAAAAATGTAGC
----------------------------------------------------------------------------------------------------------------------------------------------------------------------------
Salmonella typhimurium LT2, complete genome [asmbl_id: NC_003197], 4857432, gc%: 52.22%
Large prophage region 6 is from 2733337 to 2786289 or (2777063 to 2728534) and is 52953 (48530) bp in size, gc%: 51.09%, TARGET: lepA_gi16765903.

END5     FEATNAME           ANNOTATION OF BEST HIT FROM PHAGE DB, [ANNO]TATION, OR [HMM] HIT                                                                       PAGE: 5
............................................................................................................................................................................

2728572  attR_6             TATGAAGAACATAAGAAATTTCTCCATCATTGCTCACAT
2728976  gogB_gi16765904    [ANNO] leucine-rich repeat protein
2731356  STM2585_gi16765905 [ANNO] transposase-like protein
2733013  STM2585A_gi1676590 [ANNO] pagk-like protein
2733915  STM2586_gi16765907 gi|9626269|ref|NP_040605.1|, TAG = PHAGE_coliph_lambda, E-VALUE = 2e-66
                            [ANNO] phage tail assembly-like protein phage tail assembly protein (gi|2460256)
                            [HMM-GLOCAL] (PF02413): Caudo_TAP: Domain of unknown function DUF144, SCORE = 224.4, TRUSTED = 36.0, NOISE = 22.6
2734729  STM2587_gi16765908 [ANNO] phage tail assembly-like protein phage tail assembly protein (gi|2460256)
2737098  STM2588_gi16765909 gi|9632629|ref|NP_049863.1|, TAG = PHAGE_coliph_T4, E-VALUE = 2e-62
                            [ANNO] tail fiber-like protein
                            [HMM-GLOCAL] (PF03406): Phage_fiber_2: Phage tail fiber repeat, SCORE = 63.9, TRUSTED = 25.1, NOISE = 22.4
                            [HMM-GLOCAL] (PF07484): Collar: Phage Tail Collar Domain, SCORE = 78.3, TRUSTED = 31.2, NOISE = 14.9
                            [HMM-GLOCAL] (PF03335): Phage_fiber: Phage tail fiber repeat, SCORE = 27.5, TRUSTED = 26.4, NOISE = 23.8
2740794  STM2589_gi16765910 gi|9626264|ref|NP_040600.1|, TAG = PHAGE_coliph_lambda, E-VALUE = 0.0
                            [ANNO] host specificity protein-j-like
2741503  STM2590_gi16765911 gi|9626263|ref|NP_040599.1|, TAG = PHAGE_coliph_lambda, E-VALUE = 6e-83
                            [ANNO] tail assembly protein i-like
                            [HMM-GLOCAL] (PF06805): Lambda_tail_I: Bacteriophage lambda tail assembly protein I, SCORE = 404.5, TRUSTED = 292.5, NOISE = -69.9
2742000  STM2591_gi16765912 gi|9626262|ref|NP_040598.1|, TAG = PHAGE_coliph_lambda, E-VALUE = 2e-105
                            [ANNO] tail assembly protein k-like
2742843  STM2592_gi16765913 gi|9626261|ref|NP_040597.1|, TAG = PHAGE_coliph_lambda, E-VALUE = 1e-104
                            [ANNO] phage tail component l-like protein
                            [HMM-GLOCAL] (PF05100): Phage_tail_L: Phage minor tail protein L, SCORE = 441.7, TRUSTED = 100.7, NOISE = -98.9
                            [HMM-GLOCAL] (TIGR01600): phage_tail_L: phage minor tail protein L, SCORE = 446.3, TRUSTED = 50.0, NOISE = 15.0
2743182  STM2593_gi16765914 gi|9626260|ref|NP_040596.1|, TAG = PHAGE_coliph_lambda, E-VALUE = 4e-31
                            [ANNO] phage tail component m-like protein
                            [HMM-GLOCAL] (PF05939): Phage_min_tail: Phage minor tail protein, SCORE = 245.7, TRUSTED = 188.3, NOISE = -31.7
2746280  STM2594_gi16765915 gi|32128430|ref|NP_858965.1|, TAG = PHAGE_xantho_Xp10, E-VALUE = 7e-68
                            [ANNO] phage tail component h-like protein
                            [HMM-GLOCAL] (TIGR01541): tape_meas_lam_C: phage tail tape measure protein, lambda family, SCORE = 654.7, TRUSTED = 40.0, NOISE = -125.0
                            [HMM-GLOCAL] (PF06791): TMP_2: Prophage tail length tape measure protein, SCORE = 339.6, TRUSTED = 28.2, NOISE = -60.7
2746590  STM2595_gi16765916 gi|9630479|ref|NP_046910.1|, TAG = PHAGE_coliph_N15, E-VALUE = 2e-19
                            [ANNO] minor tail-like protein
                            [HMM-GLOCAL] (PF06223): Phage_tail_T: Minor tail protein T, SCORE = 275.0, TRUSTED = 180.4, NOISE = -32.8
                            [HMM-GLOCAL] (TIGR01715): phage_lam_T: phage tail assembly protein T, SCORE = 281.6, TRUSTED = 40.0, NOISE = 5.0
2746982  STM2596_gi16765917 gi|9626257|ref|NP_040593.1|, TAG = PHAGE_coliph_lambda, E-VALUE = 4e-08
                            [ANNO] minor tail-like protein
                            [HMM-GLOCAL] (TIGR01674): phage_lambda_G: phage minor tail protein G, SCORE = 180.7, TRUSTED = 20.0, NOISE = -40.0
                            [HMM-GLOCAL] (PF06894): Phage_lambd_GpG: Bacteriophage lambda minor tail protein (GpG), SCORE = 298.3, TRUSTED = 277.7, NOISE = -62.8
2747779  STM2597_gi16765918 gi|9630478|ref|NP_046908.1|, TAG = PHAGE_coliph_N15, E-VALUE = 8e-85
                            [ANNO] major tail-like protein
                            [HMM-GLOCAL] (PF02368): Big_2: Bacterial Ig-like domain (group 2), SCORE = 35.6, TRUSTED = 26.6, NOISE = 23.5
2748177  STM2599_gi16765920 gi|56693108|ref|YP_164695.1|, TAG = PHAGE_lactob_LP65, E-VALUE = 7e-39
                            [ANNO] putative virulence protein
2748188  STM2598_gi16765919 gi|9630477|ref|NP_046907.1|, TAG = PHAGE_coliph_N15, E-VALUE = 5e-39
                            [ANNO] hypothetical protein
                            [HMM-GLOCAL] (PF06141): Phage_tail_U: Phage minor tail protein U, SCORE = 367.7, TRUSTED = 219.2, NOISE = -81.8
2750054  STM2600_gi16765921 gi|9630476|ref|NP_046906.1|, TAG = PHAGE_coliph_N15, E-VALUE = 2e-46
                            [ANNO] minor tail protein z-like
                            [HMM-GLOCAL] (PF06763): Minor_tail_Z: Prophage minor tail protein Z (GPZ), SCORE = 481.1, TRUSTED = 383.4, NOISE = -72.3
2750465  STM2601_gi16765922 gi|9630475|ref|NP_046905.1|, TAG = PHAGE_coliph_N15, E-VALUE = 2e-33
                            [ANNO] minor capsid protein fii
                            [HMM-GLOCAL] (PF05354): Phage_attach: Phage Head-Tail Attachment, SCORE = 321.5, TRUSTED = 163.7, NOISE = -17.4
2750835  STM2602_gi16765923 gi|9630474|ref|NP_046904.1|, TAG = PHAGE_coliph_N15, E-VALUE = 2e-11
                            [ANNO] dna packaging-like protein
2751921  STM2603_gi16765924 gi|9626251|ref|NP_040587.1|, TAG = PHAGE_coliph_lambda, E-VALUE = 5e-117
                            [ANNO] phage head-like protein
                            [HMM-GLOCAL] (PF03864): Phage_cap_E: Phage major capsid protein E, SCORE = 799.9, TRUSTED = -92.3, NOISE = -123.3
2752323  STM2604_gi16765925 gi|9626250|ref|NP_040586.1|, TAG = PHAGE_coliph_lambda, E-VALUE = 5e-23
                            [ANNO] phage head-like protein
                            [HMM-GLOCAL] (PF02924): HDPD: Bacteriophage lambda head decoration protein D, SCORE = 181.6, TRUSTED = 34.1, NOISE = -23.8
Salmonella typhimurium LT2, complete genome [asmbl_id: NC_003197], 4857432, gc%: 52.22%
Large prophage region 6 is from 2733337 to 2786289 or (2777063 to 2728534) and is 52953 (48530) bp in size, gc%: 51.09%, TARGET: lepA_gi16765903.

END5     FEATNAME           ANNOTATION OF BEST HIT FROM PHAGE DB, [ANNO]TATION, OR [HMM] HIT                                                                       PAGE: 6
............................................................................................................................................................................
2753832  STM2605_gi16765926 gi|9630469|ref|NP_046900.1|, TAG = PHAGE_coliph_N15, E-VALUE = 3e-103
                            [ANNO] head-tail preconnector-like protein
2755402  STM2606_gi16765927 gi|9630468|ref|NP_046899.1|, TAG = PHAGE_coliph_N15, E-VALUE = 0.0
                            [ANNO] head-tail preconnector-like protein {Portal HMM PF05136} {Portal HMM TIGR01539}
                            [HMM-GLOCAL] (PF05136): Phage_portal_2: Phage portal protein, lambda family, SCORE = 728.8, TRUSTED = -43.3, NOISE = -139.0
                            [HMM-GLOCAL] (TIGR01539): portal_lambda: phage portal protein, lambda family, SCORE = 864.3, TRUSTED = 0.0, NOISE = -220.0
2755602  STM2607_gi16765928 gi|9630467|ref|NP_046898.1|, TAG = PHAGE_coliph_N15, E-VALUE = 2e-20
                            [ANNO] head-to-tail joining-like protein
                            [HMM-GLOCAL] (PF02831): gpW: gpW, SCORE = 128.2, TRUSTED = 128.2, NOISE = -7.7
2757517  STM2608_gi16765929 gi|9626245|ref|NP_040581.1|, TAG = PHAGE_coliph_lambda, E-VALUE = 0.0
                            [ANNO] terminase-like large protein {Terminase BLAST PHAGE_coliph_lambda-gi9626245} {Terminase HMM PF05876}
                            [HMM-GLOCAL] (PF05876): Terminase_GpA: Phage terminase large subunit (GpA), SCORE = 1042.3, TRUSTED = 265.6, NOISE = -326.0
2758033  STM2609_gi16765930 gi|9626244|ref|NP_040580.1|, TAG = PHAGE_coliph_lambda, E-VALUE = 1e-53
                            [ANNO] dna packaging-like protein
                            [HMM-GLOCAL] (PF07471): Phage_Nu1: Phage DNA packaging protein Nu1, SCORE = 387.1, TRUSTED = 27.3, NOISE = -10.5
2758320  STM2610_gi16765931 [ANNO] hypothetical protein
2759430  STM2611.S_gi395463 gi|46358690|ref|YP_006398.1|, TAG = PHAGE_salmon_ST104, E-VALUE = 2e-43
                            [ANNO] endopeptidase-like protein
                            [HMM-GLOCAL] (PF03245): Phage_lysis: Bacteriophage lysis protein, SCORE = 217.5, TRUSTED = -49.8, NOISE = -50.6
2759879  STM2612_gi16765933 gi|1429244|emb|CAA67646.1|, TAG = PHAGE_bacill_B103, E-VALUE = 4e-34
                            [ANNO] morphogenesis-like protein
                            [HMM-GLOCAL] (PF00959): Phage_lysozyme: Phage lysozyme, SCORE = 110.8, TRUSTED = 34.0, NOISE = 23.1
2760192  STM2613_gi16765934 gi|19549036|ref|NP_599081.1|, TAG = PHAGE_shigel_SfV, E-VALUE = 9e-11
                            [ANNO] hypothetical protein
                            [HMM-GLOCAL] (TIGR01594): holin_lambda: phage holin, lambda family, SCORE = 218.9, TRUSTED = 30.0, NOISE = 0.0
                            [HMM-GLOCAL] (PF05106): Phage_holin_3: Phage holin family (Lysis protein S), SCORE = 102.8, TRUSTED = 30.8, NOISE = -1.1
2760468  STM2614_gi16765935 [ANNO] hypothetical protein
                            [HMM-GLOCAL] (PF07108): PipA: PipA protein, SCORE = 621.4, TRUSTED = 409.8, NOISE = -59.9
2761722  tRNA-Arg-5         [TRNA] anticodon = TCT, codon = AGA, cove score = 74.82
2762627  STM2616_gi16765936 Sa, TAG = PHAGE_coliph_VT2, E-VALUE = 4e-40
                            [ANNO] antirepressor-like protein
2763577  STM2617_gi16765937 gi|33770551|ref|NP_892088.1|, TAG = PHAGE_yersin_PY54, E-VALUE = 3e-16
                            [ANNO] antiterminator-like protein
                            [HMM-GLOCAL] (PF06323): Phage_antiter_Q: Phage antitermination protein Q, SCORE = 577.9, TRUSTED = 44.9, NOISE = -48.1
2763714  STM2618_gi16765938 [ANNO] hypothetical protein
2764322  STM2619_gi16765939 gi|46358683|ref|YP_006391.1|, TAG = PHAGE_salmon_ST104, E-VALUE = 2e-48
                            [ANNO] hypothetical protein
                            [HMM-GLOCAL] (PF05766): NinG: Bacteriophage Lambda NinG protein, SCORE = 484.4, TRUSTED = 34.2, NOISE = -104.5
2765133  STM2620_gi16765940 gi|9635667|ref|NP_061575.1|, TAG = PHAGE_pseudo_D3, E-VALUE = 2e-35
                            [ANNO] hypothetical protein
                            [HMM-GLOCAL] (PF07105): DUF1367: Protein of unknown function (DUF1367), SCORE = 555.2, TRUSTED = 34.5, NOISE = -103.8
2765782  STM2621_gi16765941 gi|41057390|ref|NP_958095.1|, TAG = PHAGE_salmon_PSP3, E-VALUE = 8e-10
                            [ANNO] hypothetical protein
2766367  STM2622_gi16765942 [ANNO] hypothetical protein
2766753  STM2623_gi16765943 gi|24371546|ref|NP_720286.1|, TAG = PHAGE_salmon_ST64T, E-VALUE = 5e-30
                            [ANNO] hypothetical protein
2767097  STM2624_gi16765944 [ANNO] hypothetical protein
2767857  STM2625_gi16765945 gi|38640334|ref|NP_944257.1|, TAG = PHAGE_burkho_Bcep22, E-VALUE = 9e-30
                            [ANNO] dnac-like protein
2768843  STM2626_gi16765946 19B, TAG = PHAGE_coliph_H, E-VALUE = 6e-21
                            [ANNO] replication protein 15-like
                            [HMM-GLOCAL] (TIGR01610): phage_O_Nterm: phage replication protein O, N-terminal domain, SCORE = 128.9, TRUSTED = 20.0, NOISE = -10.0
                            [HMM-GLOCAL] (PF04492): Phage_rep_O: Bacteriophage replication protein O, SCORE = 684.2, TRUSTED = -26.7, NOISE = -77.9
2769302  STM2627_gi16765947 [ANNO] ci-like protein
2769627  STM2628_gi16765948 [ANNO] probable regulatory protein probable regulatory protein (gi|7467281)
2770087  STM2629_gi16765949 [ANNO] hypothetical protein
2770340  STM2630_gi16765950 [ANNO] hypothetical protein
2770520  STM2631_gi16765951 [ANNO] hypothetical protein
2770997  STM2632_gi16765952 [ANNO] exodeoxyribonuclease viii-like protein
2773893  STM2633.S_gi395463 [ANNO] enterohemolysin 1-like protein
2775045  STM2634_gi16765954 [ANNO] putative cytoplasmic protein
2775325  STM2635_gi16765955 [ANNO] excisionase-like protein
Salmonella typhimurium LT2, complete genome [asmbl_id: NC_003197], 4857432, gc%: 52.22%
Large prophage region 6 is from 2733337 to 2786289 or (2777063 to 2728534) and is 52953 (48530) bp in size, gc%: 51.09%, TARGET: lepA_gi16765903.

END5     FEATNAME           ANNOTATION OF BEST HIT FROM PHAGE DB, [ANNO]TATION, OR [HMM] HIT                                                                       PAGE: 7
............................................................................................................................................................................
2776816  STM2636_gi16765956 gi|30387406|ref|NP_848235.1|, TAG = PHAGE_salmon_epsilon15, E-VALUE = 6e-25
                            [ANNO] integrase-like protein
                            [HMM-GLOCAL] (PF00589): Phage_integrase: Phage integrase family, SCORE = 62.2, TRUSTED = -39.0, NOISE = -44.2
2777063  attL_6             TATGAAGAACATACGTAACTTTTCGATCATTGCTCACAT
----------------------------------------------------------------------------------------------------------------------------------------------------------------------------
Salmonella typhimurium LT2, complete genome [asmbl_id: NC_003197], 4857432, gc%: 52.22%
Large prophage region 7 is from 2844645 to 2889108 or (2844265 to 2878004) and is 44464 (33740) bp in size, gc%: 52.49%, TARGET: tmRNA-1.

END5     FEATNAME           ANNOTATION OF BEST HIT FROM PHAGE DB, [ANNO]TATION, OR [HMM] HIT                                                                       PAGE: 8
............................................................................................................................................................................

2843947  tmRNA-1            [TMRNA] Tag peptide = ANDETYALAA
                            [TARGET]
2844265  attL_7             ATGTAGGAATTTCGGACGCGGGTTCAACTCCCGCCAGCTCCACCAAA
2844645  STM2694_gi16766007 gi|9634083|ref|NP_052276.1|, TAG = PHAGE_coliph_186, E-VALUE = 8e-21
                            [ANNO] late control-like protein
                            [HMM-GLOCAL] (PF04606): Ogr_Delta: Phage transcriptional activator, Ogr/Delta, SCORE = 123.8, TRUSTED = 28.6, NOISE = 12.8
2845814  STM2695_gi16766008 gi|9630355|ref|NP_046784.1|, TAG = PHAGE_coliph_P2, E-VALUE = 2e-112
                            [ANNO] late control-like protein
                            [HMM-GLOCAL] (PF05954): Phage_GPD: Phage late control gene D protein (GPD), SCORE = 747.7, TRUSTED = 212.5, NOISE = -82.7
2846296  STM2696_gi16766009 gi|41057377|ref|NP_958081.1|, TAG = PHAGE_salmon_PSP3, E-VALUE = 2e-43
                            [ANNO] putative phage tail protein
                            [HMM-GLOCAL] (PF06995): Phage_P2_GpU: Phage P2 GpU, SCORE = 267.1, TRUSTED = 63.0, NOISE = -55.1
2849100  STM2697_gi16766010 gi|30065729|ref|NP_839874.1|, TAG = PHAGE_yersin_L413C, E-VALUE = 1e-93
                            [ANNO] phage tail-like protein
                            [HMM-GLOCAL] (TIGR01760): tape_meas_TP901: phage tail tape measure protein, TP901 family, core region, SCORE = 285.4, TRUSTED = 22.0, NOISE =...
2849212  STM2698_gi16766011 gi|30065728|ref|NP_839872.1|, TAG = PHAGE_yersin_L413C, E-VALUE = 3e-08
                            [ANNO] gpe-like protein
                            [HMM-GLOCAL] (PF06528): Phage_P2_GpE: phage tail protein, P2 GpE family, SCORE = 88.8, TRUSTED = 29.1, NOISE = 5.0
2849529  STM2699_gi16766012 gi|17313243|ref|NP_490623.1|, TAG = PHAGE_pseudo_phiCTX, E-VALUE = 3e-16
                            [ANNO] putative phage tail-like protein
                            [HMM-GLOCAL] (PF06158): Phage_E: Phage tail protein E, SCORE = 186.3, TRUSTED = 131.4, NOISE = -32.4
2850099  STM2700_gi16766013 gi|9634077|ref|NP_052270.1|, TAG = PHAGE_coliph_186, E-VALUE = 8e-55
                            [ANNO] phage tail fiber-like protein
                            [HMM-GLOCAL] (TIGR01611): tail_tube: phage major tail tube protein, SCORE = 222.9, TRUSTED = 80.0, NOISE = -50.0
                            [HMM-GLOCAL] (PF04985): Phage_tube: Phage tail tube protein FII, SCORE = 438.4, TRUSTED = 2.2, NOISE = -62.2
2851281  STM2701_gi16766014 gi|9634076|ref|NP_052269.1|, TAG = PHAGE_coliph_186, E-VALUE = 1e-155
                            [ANNO] phage tail sheath-like protein
                            [HMM-GLOCAL] (PF04984): Phage_sheath_1: Phage tail sheath protein, SCORE = 664.2, TRUSTED = 55.2, NOISE = 18.0
2851911  STM2703_gi16766016 gi|41057371|ref|NP_958074.1|, TAG = PHAGE_salmon_PSP3, E-VALUE = 3e-11
                            [ANNO] hypothetical protein
2851941  STM2702_gi16766015 gi|46401653|ref|YP_006499.1|, TAG = PHAGE_coliph_P1, E-VALUE = 4e-79
                            [ANNO] dna invertase-like protein
                            [HMM-GLOCAL] (PF00239): Resolvase: Resolvase, N terminal domain, SCORE = 273.8, TRUSTED = -21.1, NOISE = -21.4
2852997  STM2704_gi16766017 gi|41057372|ref|NP_958075.1|, TAG = PHAGE_salmon_PSP3, E-VALUE = 6e-27
                            [ANNO] tail fibre assembly-like protein
                            [HMM-GLOCAL] (PF02413): Caudo_TAP: Domain of unknown function DUF144, SCORE = 95.1, TRUSTED = 36.0, NOISE = 22.6
2854025  STM2705_gi16766018 gi|23505469|ref|NP_700398.1|, TAG = PHAGE_salmon_ST64B, E-VALUE = 4e-67
                            [ANNO] hypothetical protein
                            [HMM-GLOCAL] (PF02413): Caudo_TAP: Domain of unknown function DUF144, SCORE = 179.7, TRUSTED = 36.0, NOISE = 22.6
2855569  STM2706_gi16766019 gi|23505468|ref|NP_700397.1|, TAG = PHAGE_salmon_ST64B, E-VALUE = 2e-104
                            [ANNO] phage tail-like protein
2856171  STM2707_gi16766020 gi|30065721|ref|NP_839866.1|, TAG = PHAGE_yersin_L413C, E-VALUE = 2e-59
                            [ANNO] phage tail-like protein
                            [HMM-GLOCAL] (TIGR01634): tail_P2_I: phage tail protein I, SCORE = 260.3, TRUSTED = 10.0, NOISE = 7.0
2857072  STM2708_gi16766021 gi|30065720|ref|NP_839865.1|, TAG = PHAGE_yersin_L413C, E-VALUE = 3e-106
                            [ANNO] phage tail-like protein
                            [HMM-GLOCAL] (PF04865): Baseplate_J: Baseplate J-like protein, SCORE = 439.1, TRUSTED = 104.3, NOISE = -52.0
2857418  STM2709_gi16766022 gi|9634071|ref|NP_052264.1|, TAG = PHAGE_coliph_186, E-VALUE = 2e-31
                            [ANNO] base plate tail-like protein
2857993  STM2710_gi16766023 gi|41057367|ref|NP_958070.1|, TAG = PHAGE_salmon_PSP3, E-VALUE = 1e-43
                            [ANNO] phage baseplate assembly-like protein
                            [HMM-GLOCAL] (TIGR01644): phage_P2_V: phage baseplate assembly protein V, SCORE = 319.8, TRUSTED = -25.0, NOISE = -50.0
                            [HMM-GLOCAL] (PF04717): Phage_base_V: Phage-related baseplate assembly protein, SCORE = 119.6, TRUSTED = 30.9, NOISE = 7.5
2858508  STM2711_gi16766024 gi|41057366|ref|NP_958069.1|, TAG = PHAGE_salmon_PSP3, E-VALUE = 2e-34
                            [ANNO] phage tail-like protein
                            [HMM-GLOCAL] (TIGR01635): tail_comp_S: phage virion morphogenesis protein, SCORE = 115.6, TRUSTED = 20.0, NOISE = -3.0
                            [HMM-GLOCAL] (PF05069): Phage_tail_S: Phage virion morphogenesis family, SCORE = 153.7, TRUSTED = 52.6, NOISE = 3.7
2858932  STM2712_gi16766025 gi|30065716|ref|NP_839861.1|, TAG = PHAGE_yersin_L413C, E-VALUE = 5e-32
                            [ANNO] phage tail-like protein
                            [HMM-GLOCAL] (PF06891): P2_Phage_GpR: P2 phage tail completion protein R (GpR), SCORE = 307.9, TRUSTED = 307.9, NOISE = -78.0
2859179  STM2713_gi16766026 gi|17313231|ref|NP_490611.1|, TAG = PHAGE_pseudo_phiCTX, E-VALUE = 4e-18
Salmonella typhimurium LT2, complete genome [asmbl_id: NC_003197], 4857432, gc%: 52.22%
Large prophage region 7 is from 2844645 to 2889108 or (2844265 to 2878004) and is 44464 (33740) bp in size, gc%: 52.49%, TARGET: tmRNA-1.

END5     FEATNAME           ANNOTATION OF BEST HIT FROM PHAGE DB, [ANNO]TATION, OR [HMM] HIT                                                                       PAGE: 9
............................................................................................................................................................................
                            [ANNO] hypothetical protein
2859456  STM2714_gi16766027 gi|17313230|ref|NP_490610.1|, TAG = PHAGE_pseudo_phiCTX, E-VALUE = 5e-16
                            [ANNO] lysis-like protein
2860309  STM2715.S_gi395463 gi|46401639|ref|YP_006484.1|, TAG = PHAGE_coliph_P1, E-VALUE = 2e-24
                            [ANNO] probable prophage lysozyme
                            [HMM-GLOCAL] (PF00959): Phage_lysozyme: Phage lysozyme, SCORE = 116.0, TRUSTED = 34.0, NOISE = 23.1
2860538  STM2716_gi16766029 [ANNO] phage-holin-like protein
2860745  STM2717_gi16766030 gi|17313226|ref|NP_490606.1|, TAG = PHAGE_pseudo_phiCTX, E-VALUE = 1e-19
                            [ANNO] phage tail-like protein
                            [HMM-GLOCAL] (PF05489): Phage_tail_X: Phage Tail Protein X, SCORE = 147.5, TRUSTED = 25.3, NOISE = 12.0
2861209  STM2718_gi16766031 gi|9634062|ref|NP_052255.1|, TAG = PHAGE_coliph_186, E-VALUE = 1e-33
                            [ANNO] head completion-like protein
                            [HMM-GLOCAL] (PF05926): Phage_GPL: Phage head completion protein (GPL), SCORE = 319.0, TRUSTED = 231.9, NOISE = -52.7
2861956  STM2719_gi16766032 gi|9630332|ref|NP_046761.1|, TAG = PHAGE_coliph_P2, E-VALUE = 4e-46
                            [ANNO] terminase-like protein
                            [HMM-GLOCAL] (PF05944): Phage_term_smal: Phage small terminase subunit, SCORE = 144.3, TRUSTED = -10.9, NOISE = -35.6
2863042  STM2720_gi16766033 gi|9630331|ref|NP_046760.1|, TAG = PHAGE_coliph_P2, E-VALUE = 4e-119
                            [ANNO] major capsid-like protein
                            [HMM-GLOCAL] (PF05125): Phage_cap_P2: Phage major capsid protein, P2 family, SCORE = 668.4, TRUSTED = 124.2, NOISE = -197.0
                            [HMM-GLOCAL] (TIGR01551): major_capsid_P2: phage major capsid protein, P2 family, SCORE = 381.9, TRUSTED = 200.0, NOISE = -100.0
2863892  STM2721_gi16766034 gi|17313221|ref|NP_490601.1|, TAG = PHAGE_pseudo_phiCTX, E-VALUE = 2e-57
                            [ANNO] capsid scaffold-like protein
                            [HMM-GLOCAL] (PF05929): Phage_GPO: Phage capsid scaffolding protein (GPO), SCORE = 609.5, TRUSTED = 50.1, NOISE = -169.9
2864035  STM2722_gi16766035 gi|9630329|ref|NP_046758.1|, TAG = PHAGE_coliph_P2, E-VALUE = 0.0
                            [ANNO] terminase-like protein {Terminase BLAST PHAGE_coliph_P2-gi9630329} {Terminase HMM PF06056}
                            [HMM-GLOCAL] (PF06056): Terminase_5: Putative ATPase subunit of terminase (gpP-like), SCORE = 1525.0, TRUSTED = -281.3, NOISE = -412.0
2865801  STM2723_gi16766036 gi|41057353|ref|NP_958056.1|, TAG = PHAGE_salmon_PSP3, E-VALUE = 5e-125
                            [ANNO] portal vertex-like protein {Portal HMM PF04860} {Portal HMM TIGR01540}
                            [HMM-GLOCAL] (PF04860): Phage_portal: Phage portal protein, SCORE = 347.3, TRUSTED = -31.4, NOISE = -44.8
                            [HMM-GLOCAL] (TIGR01540): portal_PBSX: phage portal protein, PBSX family, SCORE = 524.0, TRUSTED = 100.0, NOISE = -60.0
2868678  STM2724_gi16766037 [ANNO] hypothetical protein
2869623  STM2726_gi16766038 [ANNO] hypothetical protein
2869988  STM2727_gi16766039 gi|41057390|ref|NP_958095.1|, TAG = PHAGE_salmon_PSP3, E-VALUE = 7e-32
                            [ANNO] hypothetical protein
2870115  STM2728_gi16766040 [ANNO] hypothetical protein
2872697  STM2729_gi16766041 gi|41057388|ref|NP_958093.1|, TAG = PHAGE_salmon_PSP3, E-VALUE = 4e-81
                            [ANNO] hypothetical protein
                            [HMM-GLOCAL] (PF05840): Phage_GPA: Bacteriophage replication gene A protein (GPA), SCORE = 969.1, TRUSTED = 87.9, NOISE = -13.6
2873545  STM2730_gi16766042 gi|46401691|ref|YP_006537.1|, TAG = PHAGE_coliph_P1, E-VALUE = 5e-45
                            [ANNO] dna adenine methylase-like protein
2873769  STM2731_gi16766043 gi|9634092|ref|NP_052285.1|, TAG = PHAGE_coliph_186, E-VALUE = 7e-27
                            [ANNO] hypothetical protein
2874002  STM2732_gi16766044 gi|41057385|ref|NP_958090.1|, TAG = PHAGE_salmon_PSP3, E-VALUE = 9e-12
                            [ANNO] hypothetical protein
2874411  STM2733_gi16766045 [ANNO] hypothetical protein
2874631  STM2734_gi16766046 [ANNO] hypothetical protein
2875270  STM2735_gi16766047 gi|9634089|ref|NP_052282.1|, TAG = PHAGE_coliph_186, E-VALUE = 5e-13
                            [ANNO] hypothetical protein
2875787  STM2736_gi16766048 gi|9634088|ref|NP_052281.1|, TAG = PHAGE_coliph_186, E-VALUE = 8e-70
                            [ANNO] hypothetical protein
                            [HMM-GLOCAL] (PF06892): Phage_CP76: Phage regulatory protein CII (CP76), SCORE = 350.4, TRUSTED = 350.4, NOISE = -40.4
2876062  STM2737_gi16766049 [ANNO] hypothetical protein
2876179  STM2738_gi16766050 gi|41057393|ref|NP_958086.1|, TAG = PHAGE_salmon_PSP3, E-VALUE = 5e-28
                            [ANNO] hypothetical protein
                            [HMM-GLOCAL] (PF07022): Phage_CI_repr: Bacteriophage CI repressor protein, SCORE = 428.4, TRUSTED = 281.1, NOISE = -48.9
2876815  STM2739_gi16766051 gi|41057380|ref|NP_958084.1|, TAG = PHAGE_salmon_PSP3, E-VALUE = 2e-113
                            [ANNO] phage tail-like protein
                            [HMM-GLOCAL] (PF00589): Phage_integrase: Phage integrase family, SCORE = 152.7, TRUSTED = -39.0, NOISE = -44.2
2877958  attR_7             ATGTAGGAATTTCGGACGCGGGTTCAACTCCCGCCAGCTCCACCAAA
----------------------------------------------------------------------------------------------------------------------------------------------------------------------------
Salmonella typhimurium LT2, complete genome [asmbl_id: NC_003197], 4857432, gc%: 52.22%
Large prophage region 9 is from 4417918 to 4438335 and is 20418 bp in size, gc%: 50.59%.

END5     FEATNAME           ANNOTATION OF BEST HIT FROM PHAGE DB, [ANNO]TATION, OR [HMM] HIT                                                                       PAGE: 10
............................................................................................................................................................................

4418646  STM4196_gi16767446 gi|46401711|ref|YP_006557.1|, TAG = PHAGE_coliph_P1, E-VALUE = 7e-35
                            [ANNO] putative cytoplasmic protein
4419133  STM4197_gi16767447 [ANNO] putative inner membrane protein
4419837  STM4198_gi16767448 [ANNO] putative cytoplasmic protein
4420439  STM4199_gi16767449 [ANNO] putative cytoplasmic protein
4422189  STM4200_gi16767450 gi|41057371|ref|NP_958074.1|, TAG = PHAGE_salmon_PSP3, E-VALUE = 1e-79
                            [ANNO] putative phage tail fiber protein h
                            [HMM-GLOCAL] (PF03406): Phage_fiber_2: Phage tail fiber repeat, SCORE = 222.5, TRUSTED = 25.1, NOISE = 22.4
4422824  STM4201_gi16767451 gi|48696961|ref|YP_024724.1|, TAG = PHAGE_burkho_BcepMu, E-VALUE = 4e-27
                            [ANNO] putative phage tail protein
                            [HMM-GLOCAL] (TIGR01634): tail_P2_I: phage tail protein I, SCORE = 24.3, TRUSTED = 10.0, NOISE = 7.0
4423932  STM4202_gi16767452 gi|48696960|ref|YP_024723.1|, TAG = PHAGE_burkho_BcepMu, E-VALUE = 2e-106
                            [ANNO] putative phage baseplate protein
                            [HMM-GLOCAL] (PF04865): Baseplate_J: Baseplate J-like protein, SCORE = 363.2, TRUSTED = 104.3, NOISE = -52.0
4424282  STM4203_gi16767453 gi|48696959|ref|YP_024722.1|, TAG = PHAGE_burkho_BcepMu, E-VALUE = 1e-36
                            [ANNO] putative phage baseplate protein
4425993  STM4204_gi16767454 [ANNO] putative inner membrane protein
4426922  STM4205_gi16767455 gi|19549012|ref|NP_599056.1|, TAG = PHAGE_shigel_SfV, E-VALUE = 3e-153
                            [ANNO] putative phage glycosyltransferase
4427281  STM4206_gi16767456 gi|19549013|ref|NP_599057.1|, TAG = PHAGE_shigel_SfV, E-VALUE = 7e-49
                            [ANNO] putative phage glucose translocase
4428331  STM4207_gi16767457 gi|48696958|ref|YP_024721.1|, TAG = PHAGE_burkho_BcepMu, E-VALUE = 2e-40
                            [ANNO] putative phage baseplate component
                            [HMM-GLOCAL] (TIGR01644): phage_P2_V: phage baseplate assembly protein V, SCORE = 54.2, TRUSTED = -25.0, NOISE = -50.0
                            [HMM-GLOCAL] (PF04717): Phage_base_V: Phage-related baseplate assembly protein, SCORE = 146.8, TRUSTED = 30.9, NOISE = 7.5
4429384  STM4208_gi16767458 gi|48696957|ref|YP_024720.1|, TAG = PHAGE_burkho_BcepMu, E-VALUE = 9e-82
                            [ANNO] putative cytoplasmic protein
                            [HMM-GLOCAL] (PF05954): Phage_GPD: Phage late control gene D protein (GPD), SCORE = 613.9, TRUSTED = 212.5, NOISE = -82.7
4429581  STM4209_gi16767459 gi|48696956|ref|YP_024719.1|, TAG = PHAGE_burkho_BcepMu, E-VALUE = 8e-20
                            [ANNO] putative inner membrane protein
                            [HMM-GLOCAL] (PF05489): Phage_tail_X: Phage Tail Protein X, SCORE = 109.4, TRUSTED = 25.3, NOISE = 12.0
4430534  STM4210_gi16767460 gi|48696955|ref|YP_024718.1|, TAG = PHAGE_burkho_BcepMu, E-VALUE = 1e-46
                            [ANNO] putative methyl-accepting chemotaxis protein
                            [HMM-GLOCAL] (PF06995): Phage_P2_GpU: Phage P2 GpU, SCORE = 201.0, TRUSTED = 63.0, NOISE = -55.1
4432888  STM4211_gi16767461 gi|48696954|ref|YP_024717.1|, TAG = PHAGE_burkho_BcepMu, E-VALUE = 1e-69
                            [ANNO] putative phage tail protein
                            [HMM-GLOCAL] (TIGR01760): tape_meas_TP901: phage tail tape measure protein, TP901 family, core region, SCORE = 40.5, TRUSTED = 22.0, NOISE = ...
4433964  STM4212_gi16767462 gi|48696950|ref|YP_024713.1|, TAG = PHAGE_burkho_BcepMu, E-VALUE = 1e-69
                            [ANNO] putative phage tail core protein
                            [HMM-GLOCAL] (TIGR01611): tail_tube: phage major tail tube protein, SCORE = 305.9, TRUSTED = 80.0, NOISE = -50.0
                            [HMM-GLOCAL] (PF04985): Phage_tube: Phage tail tube protein FII, SCORE = 9.5, TRUSTED = 2.2, NOISE = -62.2
4435391  STM4213_gi16767463 gi|48696949|ref|YP_024712.1|, TAG = PHAGE_burkho_BcepMu, E-VALUE = 0.0
                            [ANNO] putative phage tail sheath protein
                            [HMM-GLOCAL] (PF04984): Phage_sheath_1: Phage tail sheath protein, SCORE = 567.0, TRUSTED = 55.2, NOISE = 18.0
4435578  STM4214_gi16767464 gi|48696948|ref|YP_024711.1|, TAG = PHAGE_burkho_BcepMu, E-VALUE = 2e-09
                            [ANNO] putative cytoplasmic protein
4436030  STM4215_gi16767465 gi|48696947|ref|YP_024710.1|, TAG = PHAGE_burkho_BcepMu, E-VALUE = 2e-14
                            [ANNO] putative cytoplasmic protein
4436504  STM4216_gi16767466 gi|48696935|ref|YP_024698.1|, TAG = PHAGE_burkho_BcepMu, E-VALUE = 3e-24
                            [ANNO] putative inner membrane protein
4437122  STM4217_gi16767467 gi|56692593|ref|YP_164061.1|, TAG = PHAGE_pseudo_B3, E-VALUE = 2e-62
                            [ANNO] putative soluble lytic murein transglycosylase
                            [HMM-GLOCAL] (PF01464): SLT: Transglycosylase SLT domain, SCORE = 26.6, TRUSTED = 13.1, NOISE = 12.7
4437412  STM4218_gi16767468 gi|48696931|ref|YP_024694.1|, TAG = PHAGE_burkho_BcepMu, E-VALUE = 7e-22
                            [ANNO] putative inner membrane protein
4437988  STM4219.S_gi395463 gi|48696911|ref|YP_024674.1|, TAG = PHAGE_burkho_BcepMu, E-VALUE = 7e-25
                            [ANNO] putative cytoplasmic protein
............................................................................................................................................................................
There are 5 regions > 18 Kb and summing 210136 bp of sequence ( 4.33% of the genome)
