# hmmsearch :: search profile(s) against a sequence database
# HMMER 3.0 (March 2010); http://hmmer.org/
# Copyright (C) 2010 Howard Hughes Medical Institute.
# Freely distributed under the GNU General Public License (GPLv3).
# - - - - - - - - - - - - - - - - - - - - - - - - - - - - - - - - - - - -
# query HMM file:                  /home/user/phage_finder/PHAGE_FRAG_HMMs_dir/PF05565.FRAG
# target sequence database:        /media/sda3/phage_finder/examples_dir/NC_002947_tmp/NC_002947.pep
# - - - - - - - - - - - - - - - - - - - - - - - - - - - - - - - - - - - -

Query:       PF05565  [M=175]
Accession:   PF05565
Description: Sipho_Gp157: Siphovirus Gp157
Scores for complete sequences (score includes all domains):
   --- full sequence ---   --- best 1 domain ---    -#dom-
    E-value  score  bias    E-value  score  bias    exp  N  Sequence                  Description
    ------- ------ -----    ------- ------ -----   ---- --  --------                  -----------
  ------ inclusion threshold ------
       0.19    8.0   1.2       0.24    7.6   0.8    1.1  1  rpsF_gi26991557-NC_002947 ribosomal protein S6 similar to SP


Domain annotation for each sequence (and alignments):
>> rpsF_gi26991557-NC_002947  ribosomal protein S6 similar to SP P02358 identified by sequence similarity putative
   #    score  bias  c-Evalue  i-Evalue hmmfrom  hmm to    alifrom  ali to    envfrom  env to     acc
 ---   ------ ----- --------- --------- ------- -------    ------- -------    ------- -------    ----
   1 ?    7.6   0.8   4.5e-05      0.24      39      74 ..      73     109 ..      71     114 .. 0.83

  Alignments for each domain:
  == domain 1    score: 7.6 bits;  conditional E-value: 4.5e-05
                    PF05565  39 dleeKvEnivkvIKslKARR.EVEkAdieilkkEkkR 74 
                                +le+++ +   vI++l  RR E   +++e+lk+E+ R
  rpsF_gi26991557-NC_002947  73 ELEDNFRYNDAVIRNLVIRRdEAVTGQSEMLKAEENR 109
                                666666666779****99996789**********988 PP



Internal pipeline statistics summary:
-------------------------------------
Query model(s):                            1  (175 nodes)
Target sequences:                       5350  (1783007 residues)
Passed MSV filter:                       104  (0.0194393); expected 107.0 (0.02)
Passed bias filter:                      104  (0.0194393); expected 107.0 (0.02)
Passed Vit filter:                        17  (0.00317757); expected 5.4 (0.001)
Passed Fwd filter:                         1  (0.000186916); expected 0.1 (1e-05)
Initial search space (Z):               5350  [actual number of targets]
Domain search space  (domZ):               1  [number of targets reported over threshold]
# CPU time: 0.10u 0.04s 00:00:00.14 Elapsed: 00:00:00.09
# Mc/sec: 3466.96
//
