# hmmsearch :: search profile(s) against a sequence database
# HMMER 3.0 (March 2010); http://hmmer.org/
# Copyright (C) 2010 Howard Hughes Medical Institute.
# Freely distributed under the GNU General Public License (GPLv3).
# - - - - - - - - - - - - - - - - - - - - - - - - - - - - - - - - - - - -
# query HMM file:                  /home/user/phage_finder/PHAGE_FRAG_HMMs_dir/PF05840.FRAG
# target sequence database:        /media/sda3/phage_finder/examples_dir/NC_002947_tmp/NC_002947.pep
# - - - - - - - - - - - - - - - - - - - - - - - - - - - - - - - - - - - -

Query:       PF05840  [M=482]
Accession:   PF05840
Description: Phage_GPA: Bacteriophage replication gene A protein (GPA)
Scores for complete sequences (score includes all domains):
   --- full sequence ---   --- best 1 domain ---    -#dom-
    E-value  score  bias    E-value  score  bias    exp  N  Sequence                    Description
    ------- ------ -----    ------- ------ -----   ---- --  --------                    -----------
  ------ inclusion threshold ------
      0.093    7.5   0.0       0.12    7.1   0.0    1.0  1  PP3048_gi26989767-NC_002947 hypothetical protein identified 


Domain annotation for each sequence (and alignments):
>> PP3048_gi26989767-NC_002947  hypothetical protein identified by Glimmer2 putative
   #    score  bias  c-Evalue  i-Evalue hmmfrom  hmm to    alifrom  ali to    envfrom  env to     acc
 ---   ------ ----- --------- --------- ------- -------    ------- -------    ------- -------    ----
   1 ?    7.1   0.0   2.2e-05      0.12      13      39 ..      34      61 ..      30      62 .. 0.93

  Alignments for each domain:
  == domain 1    score: 7.1 bits;  conditional E-value: 2.2e-05
                      PF05840 13 mtCekWWrrqLrrirkawrE.hLlIAvG 39
                                 m+++ W++ +L +ir a rE hL+I vG
  PP3048_gi26989767-NC_002947 34 MFSAPWLQPKLGQIRTALREpHLVIRVG 61
                                 9*******************99999887 PP



Internal pipeline statistics summary:
-------------------------------------
Query model(s):                            1  (482 nodes)
Target sequences:                       5350  (1783007 residues)
Passed MSV filter:                       119  (0.022243); expected 107.0 (0.02)
Passed bias filter:                      119  (0.022243); expected 107.0 (0.02)
Passed Vit filter:                        21  (0.00392523); expected 5.4 (0.001)
Passed Fwd filter:                         1  (0.000186916); expected 0.1 (1e-05)
Initial search space (Z):               5350  [actual number of targets]
Domain search space  (domZ):               1  [number of targets reported over threshold]
# CPU time: 0.13u 0.06s 00:00:00.19 Elapsed: 00:00:00.12
# Mc/sec: 7161.74
//
