# hmmsearch :: search profile(s) against a sequence database
# HMMER 3.0 (March 2010); http://hmmer.org/
# Copyright (C) 2010 Howard Hughes Medical Institute.
# Freely distributed under the GNU General Public License (GPLv3).
# - - - - - - - - - - - - - - - - - - - - - - - - - - - - - - - - - - - -
# query HMM file:                  /home/user/phage_finder/PHAGE_FRAG_HMMs_dir/PF06260.FRAG
# target sequence database:        /media/sda3/phage_finder/examples_dir/NC_002947_tmp/NC_002947.pep
# - - - - - - - - - - - - - - - - - - - - - - - - - - - - - - - - - - - -

Query:       PF06260  [M=82]
Accession:   PF06260
Description: DUF1024; Protein of unknown function (DUF1024)
Scores for complete sequences (score includes all domains):
   --- full sequence ---   --- best 1 domain ---    -#dom-
    E-value  score  bias    E-value  score  bias    exp  N  Sequence Description
    ------- ------ -----    ------- ------ -----   ---- --  -------- -----------

   [No hits detected that satisfy reporting thresholds]


Domain annotation for each sequence (and alignments):

   [No targets detected that satisfy reporting thresholds]


Internal pipeline statistics summary:
-------------------------------------
Query model(s):                            1  (82 nodes)
Target sequences:                       5350  (1783007 residues)
Passed MSV filter:                       133  (0.0248598); expected 107.0 (0.02)
Passed bias filter:                      133  (0.0248598); expected 107.0 (0.02)
Passed Vit filter:                        21  (0.00392523); expected 5.4 (0.001)
Passed Fwd filter:                         0  (0); expected 0.1 (1e-05)
Initial search space (Z):               5350  [actual number of targets]
Domain search space  (domZ):               0  [number of targets reported over threshold]
# CPU time: 0.05u 0.03s 00:00:00.08 Elapsed: 00:00:00.06
# Mc/sec: 2436.78
//
