# hmmsearch :: search profile(s) against a sequence database
# HMMER 3.0 (March 2010); http://hmmer.org/
# Copyright (C) 2010 Howard Hughes Medical Institute.
# Freely distributed under the GNU General Public License (GPLv3).
# - - - - - - - - - - - - - - - - - - - - - - - - - - - - - - - - - - - -
# query HMM file:                  /home/user/phage_finder/PHAGE_FRAG_HMMs_dir/PF06223.FRAG
# target sequence database:        /media/sda3/phage_finder/examples_dir/NC_002947_tmp/NC_002947.pep
# - - - - - - - - - - - - - - - - - - - - - - - - - - - - - - - - - - - -

Query:       PF06223  [M=117]
Accession:   PF06223
Description: Phage_tail_T: Minor tail protein T
Scores for complete sequences (score includes all domains):
   --- full sequence ---   --- best 1 domain ---    -#dom-
    E-value  score  bias    E-value  score  bias    exp  N  Sequence                  Description
    ------- ------ -----    ------- ------ -----   ---- --  --------                  -----------
  ------ inclusion threshold ------
       0.05   10.5   0.0      0.086    9.7   0.0    1.3  1  pilD_gi26987368-NC_002947 type IV pili prepilin peptidase Pi


Domain annotation for each sequence (and alignments):
>> pilD_gi26987368-NC_002947  type IV pili prepilin peptidase PilD/XcpA similar to GB M18461 GB S60788 PID 1552514 PID 3
   #    score  bias  c-Evalue  i-Evalue hmmfrom  hmm to    alifrom  ali to    envfrom  env to     acc
 ---   ------ ----- --------- --------- ------- -------    ------- -------    ------- -------    ----
   1 ?    9.7   0.0   1.6e-05     0.086      59      81 ..     196     218 ..     195     222 .. 0.90

  Alignments for each domain:
  == domain 1    score: 9.7 bits;  conditional E-value: 1.6e-05
                    PF06223  59 alVlsLvtGdpddapaDFSLLte 81 
                                + V++LvtG++ +   DF L++ 
  pilD_gi26987368-NC_002947 196 YWVFRLVTGKEGMGYGDFKLMAL 218
                                78******************986 PP



Internal pipeline statistics summary:
-------------------------------------
Query model(s):                            1  (117 nodes)
Target sequences:                       5350  (1783007 residues)
Passed MSV filter:                       169  (0.0315888); expected 107.0 (0.02)
Passed bias filter:                      169  (0.0315888); expected 107.0 (0.02)
Passed Vit filter:                        39  (0.00728972); expected 5.4 (0.001)
Passed Fwd filter:                         1  (0.000186916); expected 0.1 (1e-05)
Initial search space (Z):               5350  [actual number of targets]
Domain search space  (domZ):               1  [number of targets reported over threshold]
# CPU time: 0.06u 0.05s 00:00:00.11 Elapsed: 00:00:00.07
# Mc/sec: 2980.17
//
