# hmmsearch :: search profile(s) against a sequence database
# HMMER 3.0 (March 2010); http://hmmer.org/
# Copyright (C) 2010 Howard Hughes Medical Institute.
# Freely distributed under the GNU General Public License (GPLv3).
# - - - - - - - - - - - - - - - - - - - - - - - - - - - - - - - - - - - -
# query HMM file:                  /home/user/phage_finder/PHAGE_FRAG_HMMs_dir/PF06291.FRAG
# target sequence database:        /media/sda3/phage_finder/examples_dir/NC_002947_tmp/NC_002947.pep
# - - - - - - - - - - - - - - - - - - - - - - - - - - - - - - - - - - - -

Query:       PF06291  [M=97]
Accession:   PF06291
Description: Lambda_Bor: Bor protein
Scores for complete sequences (score includes all domains):
   --- full sequence ---   --- best 1 domain ---    -#dom-
    E-value  score  bias    E-value  score  bias    exp  N  Sequence                    Description
    ------- ------ -----    ------- ------ -----   ---- --  --------                    -----------
  ------ inclusion threshold ------
       0.51    7.5   2.7        0.2    8.9   0.1    1.5  2  PP3722_gi26990430-NC_002947 alanine racemase putative simila


Domain annotation for each sequence (and alignments):
>> PP3722_gi26990430-NC_002947  alanine racemase putative similar to GB X64698 GB X69490 GB X64697 GB X64699 GB X83270 P
   #    score  bias  c-Evalue  i-Evalue hmmfrom  hmm to    alifrom  ali to    envfrom  env to     acc
 ---   ------ ----- --------- --------- ------- -------    ------- -------    ------- -------    ----
   1 ?    8.9   0.1   3.7e-05       0.2       3      18 ..       5      20 ..       3      22 .. 0.88
   2 ?   -3.9   0.1      0.29   1.6e+03      21      28 ..      36      43 ..      34      46 .. 0.79

  Alignments for each domain:
  == domain 1    score: 8.9 bits;  conditional E-value: 3.7e-05
                      PF06291  3 KmLlaaALAlLitGCA 18
                                 + Llaa LAlLitG A
  PP3722_gi26990430-NC_002947  5 RTLLAASLALLITGQA 20
                                 579***********76 PP

  == domain 2    score: -3.9 bits;  conditional E-value: 0.29
                      PF06291 21 tFtvqnKq 28
                                 t tvqn +
  PP3722_gi26990430-NC_002947 36 TLTVQNSN 43
                                 99***975 PP



Internal pipeline statistics summary:
-------------------------------------
Query model(s):                            1  (97 nodes)
Target sequences:                       5350  (1783007 residues)
Passed MSV filter:                       159  (0.0297196); expected 107.0 (0.02)
Passed bias filter:                      159  (0.0297196); expected 107.0 (0.02)
Passed Vit filter:                        35  (0.00654206); expected 5.4 (0.001)
Passed Fwd filter:                         1  (0.000186916); expected 0.1 (1e-05)
Initial search space (Z):               5350  [actual number of targets]
Domain search space  (domZ):               1  [number of targets reported over threshold]
# CPU time: 0.06u 0.05s 00:00:00.11 Elapsed: 00:00:00.08
# Mc/sec: 2161.90
//
