# hmmsearch :: search profile(s) against a sequence database
# HMMER 3.0 (March 2010); http://hmmer.org/
# Copyright (C) 2010 Howard Hughes Medical Institute.
# Freely distributed under the GNU General Public License (GPLv3).
# - - - - - - - - - - - - - - - - - - - - - - - - - - - - - - - - - - - -
# query HMM file:                  /home/user/phage_finder/PHAGE_FRAG_HMMs_dir/PF06720.FRAG
# target sequence database:        /media/sda3/phage_finder/examples_dir/NC_002947_tmp/NC_002947.pep
# - - - - - - - - - - - - - - - - - - - - - - - - - - - - - - - - - - - -

Query:       PF06720  [M=130]
Accession:   PF06720
Description: Phi-29_GP16_7: Bacteriophage phi-29 early protein GP16.7
Scores for complete sequences (score includes all domains):
   --- full sequence ---   --- best 1 domain ---    -#dom-
    E-value  score  bias    E-value  score  bias    exp  N  Sequence                    Description
    ------- ------ -----    ------- ------ -----   ---- --  --------                    -----------
  ------ inclusion threshold ------
      0.037   10.8   0.3      0.065    9.9   0.2    1.3  1  PP1695_gi26988427-NC_002947 sodium-solute symporter/sensory 


Domain annotation for each sequence (and alignments):
>> PP1695_gi26988427-NC_002947  sodium-solute symporter/sensory box histidine kinase/response regulator putative identif
   #    score  bias  c-Evalue  i-Evalue hmmfrom  hmm to    alifrom  ali to    envfrom  env to     acc
 ---   ------ ----- --------- --------- ------- -------    ------- -------    ------- -------    ----
   1 ?    9.9   0.2   1.2e-05     0.065      32      58 ..     758     784 ..     750     792 .. 0.83

  Alignments for each domain:
  == domain 1    score: 9.9 bits;  conditional E-value: 1.2e-05
                      PF06720  32 LEDYLEDLnkRvvqRtqiLsELnEvis 58 
                                  L D  E L +Rv+ Rt  Ls Ln  +s
  PP1695_gi26988427-NC_002947 758 LRDANERLEQRVAERTHELSQLNQALS 784
                                  667778899**************9876 PP



Internal pipeline statistics summary:
-------------------------------------
Query model(s):                            1  (130 nodes)
Target sequences:                       5350  (1783007 residues)
Passed MSV filter:                       139  (0.0259813); expected 107.0 (0.02)
Passed bias filter:                      139  (0.0259813); expected 107.0 (0.02)
Passed Vit filter:                        27  (0.00504673); expected 5.4 (0.001)
Passed Fwd filter:                         1  (0.000186916); expected 0.1 (1e-05)
Initial search space (Z):               5350  [actual number of targets]
Domain search space  (domZ):               1  [number of targets reported over threshold]
# CPU time: 0.07u 0.04s 00:00:00.11 Elapsed: 00:00:00.08
# Mc/sec: 2897.39
//
