# hmmsearch :: search profile(s) against a sequence database
# HMMER 3.0 (March 2010); http://hmmer.org/
# Copyright (C) 2010 Howard Hughes Medical Institute.
# Freely distributed under the GNU General Public License (GPLv3).
# - - - - - - - - - - - - - - - - - - - - - - - - - - - - - - - - - - - -
# query HMM file:                  /home/user/phage_finder/PHAGE_FRAG_HMMs_dir/PF06264.FRAG
# target sequence database:        /media/sda3/phage_finder/examples_dir/NC_002947_tmp/NC_002947.pep
# - - - - - - - - - - - - - - - - - - - - - - - - - - - - - - - - - - - -

Query:       PF06264  [M=124]
Accession:   PF06264
Description: DUF1026; Protein of unknown function (DUF1026)
Scores for complete sequences (score includes all domains):
   --- full sequence ---   --- best 1 domain ---    -#dom-
    E-value  score  bias    E-value  score  bias    exp  N  Sequence                    Description
    ------- ------ -----    ------- ------ -----   ---- --  --------                    -----------
    1.1e-33  114.2   0.2    1.4e-33  113.8   0.1    1.1  1  PP1570_gi26988302-NC_002947 head-tail adaptor similar to GP 
  ------ inclusion threshold ------
      0.058    9.9   0.0      0.078    9.5   0.0    1.2  1  ihfA_gi26989194-NC_002947   integration host factor alpha su
       0.15    8.5   0.3        0.3    7.5   0.2    1.4  1  PP0532_gi26987270-NC_002947 hypothetical protein identified 


Domain annotation for each sequence (and alignments):
>> PP1570_gi26988302-NC_002947  head-tail adaptor similar to GP 6863120 and GP 6901597 identified by sequence similarity
   #    score  bias  c-Evalue  i-Evalue hmmfrom  hmm to    alifrom  ali to    envfrom  env to     acc
 ---   ------ ----- --------- --------- ------- -------    ------- -------    ------- -------    ----
   1 !  113.8   0.1   7.6e-37   1.4e-33       1     124 []       1     112 [.       1     112 [. 0.91

  Alignments for each domain:
  == domain 1    score: 113.8 bits;  conditional E-value: 7.6e-37
                      PF06264   1 MeaGrLrhRIslQrpvktrnptt...GepvPetWvdvtLlfkglarvwAeVrglsGREfiaagAeqaettvRIrIRYrtged 79 
                                  M+aGrLrhRI +Q++  +r+p t   Gep    Wv+         + +A+V+ ls+R fiaa+A qa++t R++IRYrtg  
  PP1570_gi26988302-NC_002947   1 MQAGRLRHRIDIQELRPVRDPVTlefGEPE---WVTR------WEKCPASVEDLSARDFIAAQAGQAQATGRMVIRYRTG-- 71 
                                  *********************986667763...5555......5555********************************9.. PP

                      PF06264  80 itaasRilVlsGPyrGrvyNIigvpvapkvtRq.rlellCkeGaek 124
                                  ++ ++Ril     yrG+vy I+g+p+a++  +  +l++l+  G+++
  PP1570_gi26988302-NC_002947  72 VLPTMRIL-----YRGEVYSIVGPPLADAKSGLdYLTILVEKGVKD 112
                                  ********.....*************98766644*********987 PP

>> ihfA_gi26989194-NC_002947  integration host factor alpha subunit similar to GB X07234 and PID 46715 identified by seq
   #    score  bias  c-Evalue  i-Evalue hmmfrom  hmm to    alifrom  ali to    envfrom  env to     acc
 ---   ------ ----- --------- --------- ------- -------    ------- -------    ------- -------    ----
   1 ?    9.5   0.0   4.3e-05     0.078      14      50 ..      59      94 ..      58      97 .. 0.82

  Alignments for each domain:
  == domain 1    score: 9.5 bits;  conditional E-value: 4.3e-05
                    PF06264 14 rpvktrnpttGepvP.etWvdvtLlfkglarvwAeVrg 50
                               r+  +rnp tGe++P ++ ++v   f++  ++ A+V+ 
  ihfA_gi26989194-NC_002947 59 RQRPGRNPKTGEEIPiTARRVV--TFRPGQKLKARVEA 94
                               56668*******9996677777..***********986 PP

>> PP0532_gi26987270-NC_002947  hypothetical protein identified by match to PFAM protein family HMM PF00326
   #    score  bias  c-Evalue  i-Evalue hmmfrom  hmm to    alifrom  ali to    envfrom  env to     acc
 ---   ------ ----- --------- --------- ------- -------    ------- -------    ------- -------    ----
   1 ?    7.5   0.2   0.00017       0.3      14      27 ..     130     143 ..     128     145 .. 0.91

  Alignments for each domain:
  == domain 1    score: 7.5 bits;  conditional E-value: 0.00017
                      PF06264  14 rpvktrnpttGepv 27 
                                  ++v++r+p+tG+p+
  PP0532_gi26987270-NC_002947 130 EQVQQRDPLTGQPS 143
                                  79***********8 PP



Internal pipeline statistics summary:
-------------------------------------
Query model(s):                            1  (124 nodes)
Target sequences:                       5350  (1783007 residues)
Passed MSV filter:                       133  (0.0248598); expected 107.0 (0.02)
Passed bias filter:                      133  (0.0248598); expected 107.0 (0.02)
Passed Vit filter:                        26  (0.00485981); expected 5.4 (0.001)
Passed Fwd filter:                         3  (0.000560748); expected 0.1 (1e-05)
Initial search space (Z):               5350  [actual number of targets]
Domain search space  (domZ):               3  [number of targets reported over threshold]
# CPU time: 0.06u 0.03s 00:00:00.09 Elapsed: 00:00:00.07
# Mc/sec: 3158.47
//
