# hmmsearch :: search profile(s) against a sequence database
# HMMER 3.0 (March 2010); http://hmmer.org/
# Copyright (C) 2010 Howard Hughes Medical Institute.
# Freely distributed under the GNU General Public License (GPLv3).
# - - - - - - - - - - - - - - - - - - - - - - - - - - - - - - - - - - - -
# query HMM file:                  /home/user/phage_finder/PHAGE_FRAG_HMMs_dir/PF06341.FRAG
# target sequence database:        /media/sda3/phage_finder/examples_dir/NC_002947_tmp/NC_002947.pep
# - - - - - - - - - - - - - - - - - - - - - - - - - - - - - - - - - - - -

Query:       PF06341  [M=59]
Accession:   PF06341
Description: DUF1056: Protein of unknown function (DUF1056)
Scores for complete sequences (score includes all domains):
   --- full sequence ---   --- best 1 domain ---    -#dom-
    E-value  score  bias    E-value  score  bias    exp  N  Sequence                    Description
    ------- ------ -----    ------- ------ -----   ---- --  --------                    -----------
  ------ inclusion threshold ------
       0.35    7.9   2.5        1.7    5.7   1.7    2.2  1  PP0544_gi26987282-NC_002947 ethanolamine transporter similar


Domain annotation for each sequence (and alignments):
>> PP0544_gi26987282-NC_002947  ethanolamine transporter similar to GP 9950217 GB Z15005 SP Q02224 and PID 29865 identif
   #    score  bias  c-Evalue  i-Evalue hmmfrom  hmm to    alifrom  ali to    envfrom  env to     acc
 ---   ------ ----- --------- --------- ------- -------    ------- -------    ------- -------    ----
   1 ?    5.7   1.7   0.00032       1.7      16      35 ..     171     191 ..     170     192 .. 0.91

  Alignments for each domain:
  == domain 1    score: 5.7 bits;  conditional E-value: 0.00032
                      PF06341  16 LmFilaAi.tinvTvFlinlv 35 
                                  LmFi  Ai  i + vFli++v
  PP0544_gi26987282-NC_002947 171 LMFIITAIaAIALAVFLIGMV 191
                                  9*******55********987 PP



Internal pipeline statistics summary:
-------------------------------------
Query model(s):                            1  (59 nodes)
Target sequences:                       5350  (1783007 residues)
Passed MSV filter:                       134  (0.0250467); expected 107.0 (0.02)
Passed bias filter:                      134  (0.0250467); expected 107.0 (0.02)
Passed Vit filter:                        19  (0.0035514); expected 5.4 (0.001)
Passed Fwd filter:                         1  (0.000186916); expected 0.1 (1e-05)
Initial search space (Z):               5350  [actual number of targets]
Domain search space  (domZ):               1  [number of targets reported over threshold]
# CPU time: 0.04u 0.04s 00:00:00.08 Elapsed: 00:00:00.05
# Mc/sec: 2103.95
//
