# hmmsearch :: search profile(s) against a sequence database
# HMMER 3.0 (March 2010); http://hmmer.org/
# Copyright (C) 2010 Howard Hughes Medical Institute.
# Freely distributed under the GNU General Public License (GPLv3).
# - - - - - - - - - - - - - - - - - - - - - - - - - - - - - - - - - - - -
# query HMM file:                  /home/user/phage_finder/PHAGE_FRAG_HMMs_dir/PF06591.FRAG
# target sequence database:        /media/sda3/phage_finder/examples_dir/NC_002947_tmp/NC_002947.pep
# - - - - - - - - - - - - - - - - - - - - - - - - - - - - - - - - - - - -

Query:       PF06591  [M=151]
Accession:   PF06591
Description: Phage_T4_Ndd: T4-like phage nuclear disruption protein (Ndd)
Scores for complete sequences (score includes all domains):
   --- full sequence ---   --- best 1 domain ---    -#dom-
    E-value  score  bias    E-value  score  bias    exp  N  Sequence                    Description
    ------- ------ -----    ------- ------ -----   ---- --  --------                    -----------
  ------ inclusion threshold ------
       0.23    8.1   0.8       0.36    7.5   0.6    1.2  1  PP2398_gi26989121-NC_002947 hypothetical protein identified 


Domain annotation for each sequence (and alignments):
>> PP2398_gi26989121-NC_002947  hypothetical protein identified by Glimmer2 putative
   #    score  bias  c-Evalue  i-Evalue hmmfrom  hmm to    alifrom  ali to    envfrom  env to     acc
 ---   ------ ----- --------- --------- ------- -------    ------- -------    ------- -------    ----
   1 ?    7.5   0.6   6.7e-05      0.36      74      96 ..     122     144 ..     119     152 .. 0.90

  Alignments for each domain:
  == domain 1    score: 7.5 bits;  conditional E-value: 6.7e-05
                      PF06591  74 vLsHiRqRRsqLARtiAnnnvaY 96 
                                  v + iRq   qL R iA  n++Y
  PP2398_gi26989121-NC_002947 122 VAARIRQAQEQLERRIAVENISY 144
                                  5578*****************99 PP



Internal pipeline statistics summary:
-------------------------------------
Query model(s):                            1  (151 nodes)
Target sequences:                       5350  (1783007 residues)
Passed MSV filter:                       116  (0.0216822); expected 107.0 (0.02)
Passed bias filter:                      116  (0.0216822); expected 107.0 (0.02)
Passed Vit filter:                        18  (0.00336449); expected 5.4 (0.001)
Passed Fwd filter:                         1  (0.000186916); expected 0.1 (1e-05)
Initial search space (Z):               5350  [actual number of targets]
Domain search space  (domZ):               1  [number of targets reported over threshold]
# CPU time: 0.06u 0.04s 00:00:00.10 Elapsed: 00:00:00.07
# Mc/sec: 3846.20
//
