# hmmsearch :: search profile(s) against a sequence database
# HMMER 3.0 (March 2010); http://hmmer.org/
# Copyright (C) 2010 Howard Hughes Medical Institute.
# Freely distributed under the GNU General Public License (GPLv3).
# - - - - - - - - - - - - - - - - - - - - - - - - - - - - - - - - - - - -
# query HMM file:                  /home/user/phage_finder/PHAGE_FRAG_HMMs_dir/PF07825.FRAG
# target sequence database:        /media/sda3/phage_finder/examples_dir/NC_002947_tmp/NC_002947.pep
# - - - - - - - - - - - - - - - - - - - - - - - - - - - - - - - - - - - -

Query:       PF07825  [M=77]
Accession:   PF07825
Description: Exc; Excisionase-like protein
Scores for complete sequences (score includes all domains):
   --- full sequence ---   --- best 1 domain ---    -#dom-
    E-value  score  bias    E-value  score  bias    exp  N  Sequence                    Description
    ------- ------ -----    ------- ------ -----   ---- --  --------                    -----------
    8.3e-63  209.3   3.8    9.1e-63  209.1   2.6    1.0  1  PP1533_gi26988265-NC_002947 excisionase putative similar to 


Domain annotation for each sequence (and alignments):
>> PP1533_gi26988265-NC_002947  excisionase putative similar to SP P06524 GB X02423 GB X03933 GB X16905 PID 154815 PID 3
   #    score  bias  c-Evalue  i-Evalue hmmfrom  hmm to    alifrom  ali to    envfrom  env to     acc
 ---   ------ ----- --------- --------- ------- -------    ------- -------    ------- -------    ----
   1 !  209.1   2.6   1.7e-66   9.1e-63       1      77 []       2      78 ..       2      78 .. 1.00

  Alignments for each domain:
  == domain 1    score: 209.1 bits;  conditional E-value: 1.7e-66
                      PF07825  1 mklTLdEWaadqFRrPrSleTlRRWvREglIfPaPVKdGReYlveedAvkvdlerLPRvPVtsgLlkRIasakkaks 77
                                 +k+TLdEWa+d+FR+P+S++TlRRW+REglI+PaPVK+GR+Y+ve+dA+++++e+LPRvPV+s+L++RIasa+++++
  PP1533_gi26988265-NC_002947  2 CKVTLDEWAHDHFRTPPSSNTLRRWAREGLITPAPVKHGRSYYVEADACYREPEPLPRVPVGSPLVNRIASARYGAQ 78
                                 9**************************************************************************98 PP



Internal pipeline statistics summary:
-------------------------------------
Query model(s):                            1  (77 nodes)
Target sequences:                       5350  (1783007 residues)
Passed MSV filter:                       152  (0.0284112); expected 107.0 (0.02)
Passed bias filter:                      152  (0.0284112); expected 107.0 (0.02)
Passed Vit filter:                        30  (0.00560748); expected 5.4 (0.001)
Passed Fwd filter:                         1  (0.000186916); expected 0.1 (1e-05)
Initial search space (Z):               5350  [actual number of targets]
Domain search space  (domZ):               1  [number of targets reported over threshold]
# CPU time: 0.04u 0.04s 00:00:00.08 Elapsed: 00:00:00.06
# Mc/sec: 2288.19
//
