# hmmsearch :: search profile(s) against a sequence database
# HMMER 3.0 (March 2010); http://hmmer.org/
# Copyright (C) 2010 Howard Hughes Medical Institute.
# Freely distributed under the GNU General Public License (GPLv3).
# - - - - - - - - - - - - - - - - - - - - - - - - - - - - - - - - - - - -
# query HMM file:                  /home/user/phage_finder/PHAGE_FRAG_HMMs_dir/PF07374.FRAG
# target sequence database:        /media/sda3/phage_finder/examples_dir/NC_002947_tmp/NC_002947.pep
# - - - - - - - - - - - - - - - - - - - - - - - - - - - - - - - - - - - -

Query:       PF07374  [M=100]
Accession:   PF07374
Description: DUF1492; Protein of unknown function (DUF1492)
Scores for complete sequences (score includes all domains):
   --- full sequence ---   --- best 1 domain ---    -#dom-
    E-value  score  bias    E-value  score  bias    exp  N  Sequence                    Description
    ------- ------ -----    ------- ------ -----   ---- --  --------                    -----------
  ------ inclusion threshold ------
      0.066   10.2   0.0        0.1    9.5   0.0    1.2  1  PP0546_gi26987284-NC_002947 sigma-54 dependent transcription
      0.069   10.1   0.0       0.11    9.4   0.0    1.2  1  PP3467_gi26990180-NC_002947 sigma-54 dependent transcription
       0.14    9.1   0.0       0.21    8.5   0.0    1.1  1  PP3039_gi26989758-NC_002947 pyocin R2_PP conserved hypotheti


Domain annotation for each sequence (and alignments):
>> PP0546_gi26987284-NC_002947  sigma-54 dependent transcriptional regulator similar to GP 9950215 identified by sequenc
   #    score  bias  c-Evalue  i-Evalue hmmfrom  hmm to    alifrom  ali to    envfrom  env to     acc
 ---   ------ ----- --------- --------- ------- -------    ------- -------    ------- -------    ----
   1 ?    9.5   0.0   5.8e-05       0.1      78      93 ..     702     717 ..     698     719 .. 0.88

  Alignments for each domain:
  == domain 1    score: 9.5 bits;  conditional E-value: 5.8e-05
                      PF07374  78 iDkLniSraTYyvkLR 93 
                                     L+iSr T y+kLR
  PP0546_gi26987284-NC_002947 702 AEHLGISRNTLYRKLR 717
                                  568************* PP

>> PP3467_gi26990180-NC_002947  sigma-54 dependent transcriptional regulator identified by match to PFAM protein family 
   #    score  bias  c-Evalue  i-Evalue hmmfrom  hmm to    alifrom  ali to    envfrom  env to     acc
 ---   ------ ----- --------- --------- ------- -------    ------- -------    ------- -------    ----
   1 ?    9.4   0.0   6.3e-05      0.11      81      94 ..     620     633 ..     618     634 .. 0.94

  Alignments for each domain:
  == domain 1    score: 9.4 bits;  conditional E-value: 6.3e-05
                      PF07374  81 LniSraTYyvkLRv 94 
                                  L+iSraT y+kL +
  PP3467_gi26990180-NC_002947 620 LGISRATLYRKLKQ 633
                                  9***********87 PP

>> PP3039_gi26989758-NC_002947  pyocin R2_PP conserved hypothetical protein See PMID 11069649 PRF07 similar to GP 572518
   #    score  bias  c-Evalue  i-Evalue hmmfrom  hmm to    alifrom  ali to    envfrom  env to     acc
 ---   ------ ----- --------- --------- ------- -------    ------- -------    ------- -------    ----
   1 ?    8.5   0.0   0.00012      0.21      82      95 ..      94     107 ..      92     108 .. 0.88

  Alignments for each domain:
  == domain 1    score: 8.5 bits;  conditional E-value: 0.00012
                      PF07374  82 niSraTYyvkLRvA 95 
                                  ++Sr TYy++L  A
  PP3039_gi26989758-NC_002947  94 GCSRDTYYKRLHEA 107
                                  9*********9776 PP



Internal pipeline statistics summary:
-------------------------------------
Query model(s):                            1  (100 nodes)
Target sequences:                       5350  (1783007 residues)
Passed MSV filter:                       117  (0.0218692); expected 107.0 (0.02)
Passed bias filter:                      117  (0.0218692); expected 107.0 (0.02)
Passed Vit filter:                        23  (0.00429907); expected 5.4 (0.001)
Passed Fwd filter:                         4  (0.000747664); expected 0.1 (1e-05)
Initial search space (Z):               5350  [actual number of targets]
Domain search space  (domZ):               3  [number of targets reported over threshold]
# CPU time: 0.05u 0.04s 00:00:00.09 Elapsed: 00:00:00.06
# Mc/sec: 2971.68
//
