# hmmsearch :: search profile(s) against a sequence database
# HMMER 3.0 (March 2010); http://hmmer.org/
# Copyright (C) 2010 Howard Hughes Medical Institute.
# Freely distributed under the GNU General Public License (GPLv3).
# - - - - - - - - - - - - - - - - - - - - - - - - - - - - - - - - - - - -
# query HMM file:                  /home/user/phage_finder/PHAGE_HMMs_dir/PF03374.HMM
# target sequence database:        /media/sda3/phage_finder/examples_dir/NC_002947_tmp/NC_002947.pep
# - - - - - - - - - - - - - - - - - - - - - - - - - - - - - - - - - - - -

Query:       PF03374  [M=135]
Accession:   PF03374
Description: ANT: Phage antirepressor protein
Scores for complete sequences (score includes all domains):
   --- full sequence ---   --- best 1 domain ---    -#dom-
    E-value  score  bias    E-value  score  bias    exp  N  Sequence                    Description
    ------- ------ -----    ------- ------ -----   ---- --  --------                    -----------
  ------ inclusion threshold ------
      0.023   10.9   0.4      0.033   10.4   0.3    1.1  1  PP4419_gi26991107-NC_002947 transposase OrfA identified by m


Domain annotation for each sequence (and alignments):
>> PP4419_gi26991107-NC_002947  transposase OrfA identified by match to PFAM protein family HMM PF04218
   #    score  bias  c-Evalue  i-Evalue hmmfrom  hmm to    alifrom  ali to    envfrom  env to     acc
 ---   ------ ----- --------- --------- ------- -------    ------- -------    ------- -------    ----
   1 ?   10.4   0.3   6.2e-06     0.033       7      24 ..      60      77 ..      59      81 .. 0.90

  Alignments for each domain:
  == domain 1    score: 10.4 bits;  conditional E-value: 6.2e-06
                      PF03374  7 rAlleaqkeineLEkQIE 24
                                 +Al  +q++i+eLE++I 
  PP4419_gi26991107-NC_002947 60 KALTPEQQKIQELEARIT 77
                                 79999**********995 PP



Internal pipeline statistics summary:
-------------------------------------
Query model(s):                            1  (135 nodes)
Target sequences:                       5350  (1783007 residues)
Passed MSV filter:                       157  (0.0293458); expected 107.0 (0.02)
Passed bias filter:                      157  (0.0293458); expected 107.0 (0.02)
Passed Vit filter:                        30  (0.00560748); expected 5.4 (0.001)
Passed Fwd filter:                         1  (0.000186916); expected 0.1 (1e-05)
Initial search space (Z):               5350  [actual number of targets]
Domain search space  (domZ):               1  [number of targets reported over threshold]
# CPU time: 0.06u 0.04s 00:00:00.10 Elapsed: 00:00:00.07
# Mc/sec: 3438.66
//
