# hmmsearch :: search profile(s) against a sequence database
# HMMER 3.0 (March 2010); http://hmmer.org/
# Copyright (C) 2010 Howard Hughes Medical Institute.
# Freely distributed under the GNU General Public License (GPLv3).
# - - - - - - - - - - - - - - - - - - - - - - - - - - - - - - - - - - - -
# query HMM file:                  /home/user/phage_finder/PHAGE_HMMs_dir/PF03197.HMM
# target sequence database:        /media/sda3/phage_finder/examples_dir/NC_002947_tmp/NC_002947.pep
# - - - - - - - - - - - - - - - - - - - - - - - - - - - - - - - - - - - -

Query:       PF03197  [M=104]
Accession:   PF03197
Description: FRD2: Bacteriophage FRD2 protein
Scores for complete sequences (score includes all domains):
   --- full sequence ---   --- best 1 domain ---    -#dom-
    E-value  score  bias    E-value  score  bias    exp  N  Sequence                    Description
    ------- ------ -----    ------- ------ -----   ---- --  --------                    -----------
  ------ inclusion threshold ------
      0.015   12.7   0.7      0.023   12.1   0.5    1.2  1  PP2276_gi26989000-NC_002947 phage exonuclease putative simil


Domain annotation for each sequence (and alignments):
>> PP2276_gi26989000-NC_002947  phage exonuclease putative similar to GP 6599017 SP Q01960 GB X66445 PID 39919 and GB AL
   #    score  bias  c-Evalue  i-Evalue hmmfrom  hmm to    alifrom  ali to    envfrom  env to     acc
 ---   ------ ----- --------- --------- ------- -------    ------- -------    ------- -------    ----
   1 ?   12.1   0.5   4.3e-06     0.023      36      59 ..      98     119 ..      91     124 .. 0.88

  Alignments for each domain:
  == domain 1    score: 12.1 bits;  conditional E-value: 4.3e-06
                      PF03197  36 GkeyyadgpletyfeiceeEFkcF 59 
                                  G +y+++   +t+fe+ eeE  + 
  PP2276_gi26989000-NC_002947  98 GHHYNFN--TDTFFEVTEEEADYW 119
                                  99*****..89*********8776 PP



Internal pipeline statistics summary:
-------------------------------------
Query model(s):                            1  (104 nodes)
Target sequences:                       5350  (1783007 residues)
Passed MSV filter:                        72  (0.0134579); expected 107.0 (0.02)
Passed bias filter:                       72  (0.0134579); expected 107.0 (0.02)
Passed Vit filter:                        10  (0.00186916); expected 5.4 (0.001)
Passed Fwd filter:                         1  (0.000186916); expected 0.1 (1e-05)
Initial search space (Z):               5350  [actual number of targets]
Domain search space  (domZ):               1  [number of targets reported over threshold]
# CPU time: 0.05u 0.04s 00:00:00.09 Elapsed: 00:00:00.06
# Mc/sec: 3090.55
//
