# hmmsearch :: search profile(s) against a sequence database
# HMMER 3.0 (March 2010); http://hmmer.org/
# Copyright (C) 2010 Howard Hughes Medical Institute.
# Freely distributed under the GNU General Public License (GPLv3).
# - - - - - - - - - - - - - - - - - - - - - - - - - - - - - - - - - - - -
# query HMM file:                  /home/user/phage_finder/PHAGE_HMMs_dir/PF04531.HMM
# target sequence database:        /media/sda3/phage_finder/examples_dir/NC_002947_tmp/NC_002947.pep
# - - - - - - - - - - - - - - - - - - - - - - - - - - - - - - - - - - - -

Query:       PF04531  [M=85]
Accession:   PF04531
Description: Phage_holin_1: Bacteriophage holin
Scores for complete sequences (score includes all domains):
   --- full sequence ---   --- best 1 domain ---    -#dom-
    E-value  score  bias    E-value  score  bias    exp  N  Sequence                    Description
    ------- ------ -----    ------- ------ -----   ---- --  --------                    -----------
  ------ inclusion threshold ------
        1.9    5.3   5.6       0.24    8.3   0.5    1.9  2  PP3541_gi26990253-NC_002947 transporter MgtC family similar 


Domain annotation for each sequence (and alignments):
>> PP3541_gi26990253-NC_002947  transporter MgtC family similar to GP 5508829 identified by sequence similarity putative
   #    score  bias  c-Evalue  i-Evalue hmmfrom  hmm to    alifrom  ali to    envfrom  env to     acc
 ---   ------ ----- --------- --------- ------- -------    ------- -------    ------- -------    ----
   1 ?   -1.8   0.2     0.055   2.9e+02      46      55 ..      31      40 ..      28      40 .. 0.69
   2 ?    8.3   0.5   4.4e-05      0.24      42      58 ..     130     146 ..     120     146 .. 0.90

  Alignments for each domain:
  == domain 1    score: -1.8 bits;  conditional E-value: 0.055
                      PF04531 46 taivNAiLtL 55
                                 +a+++A+L++
  PP3541_gi26990253-NC_002947 31 AAVLGAVLGF 40
                                 4777787776 PP

  == domain 2    score: 8.3 bits;  conditional E-value: 4.4e-05
                      PF04531  42 ieqLtaivNAiLtLLvi 58 
                                  + ++ta+++++L+LLv+
  PP3541_gi26990253-NC_002947 130 GREATALISTVLALLVL 146
                                  5689***********96 PP



Internal pipeline statistics summary:
-------------------------------------
Query model(s):                            1  (85 nodes)
Target sequences:                       5350  (1783007 residues)
Passed MSV filter:                       201  (0.0375701); expected 107.0 (0.02)
Passed bias filter:                      201  (0.0375701); expected 107.0 (0.02)
Passed Vit filter:                        46  (0.00859813); expected 5.4 (0.001)
Passed Fwd filter:                         3  (0.000560748); expected 0.1 (1e-05)
Initial search space (Z):               5350  [actual number of targets]
Domain search space  (domZ):               1  [number of targets reported over threshold]
# CPU time: 0.05u 0.03s 00:00:00.08 Elapsed: 00:00:00.06
# Mc/sec: 2525.93
//
