# hmmsearch :: search profile(s) against a sequence database
# HMMER 3.0 (March 2010); http://hmmer.org/
# Copyright (C) 2010 Howard Hughes Medical Institute.
# Freely distributed under the GNU General Public License (GPLv3).
# - - - - - - - - - - - - - - - - - - - - - - - - - - - - - - - - - - - -
# query HMM file:                  /home/user/phage_finder/PHAGE_HMMs_dir/PF04761.HMM
# target sequence database:        /media/sda3/phage_finder/examples_dir/NC_002947_tmp/NC_002947.pep
# - - - - - - - - - - - - - - - - - - - - - - - - - - - - - - - - - - - -

Query:       PF04761  [M=58]
Accession:   PF04761
Description: Phage_Treg: Lactococcus bacteriophage putative transcription regulator
Scores for complete sequences (score includes all domains):
   --- full sequence ---   --- best 1 domain ---    -#dom-
    E-value  score  bias    E-value  score  bias    exp  N  Sequence                  Description
    ------- ------ -----    ------- ------ -----   ---- --  --------                  -----------
  ------ inclusion threshold ------
      0.079   10.3   0.1       0.17    9.2   0.1    1.5  1  hsdM_gi26991424-NC_002947 type I restriction-modification sy


Domain annotation for each sequence (and alignments):
>> hsdM_gi26991424-NC_002947  type I restriction-modification system M subunit similar to GB U12011 identified by sequen
   #    score  bias  c-Evalue  i-Evalue hmmfrom  hmm to    alifrom  ali to    envfrom  env to     acc
 ---   ------ ----- --------- --------- ------- -------    ------- -------    ------- -------    ----
   1 ?    9.2   0.1   3.2e-05      0.17      32      48 ..      79      98 ..      75     104 .. 0.82

  Alignments for each domain:
  == domain 1    score: 9.2 bits;  conditional E-value: 3.2e-05
                    PF04761 32 kdFlkdSLlPQL...yEWSN 48
                               kdF+ + L PQL    E SN
  hsdM_gi26991424-NC_002947 79 KDFIDNNLFPQLqnlHEYSN 98
                               8**********644488888 PP



Internal pipeline statistics summary:
-------------------------------------
Query model(s):                            1  (58 nodes)
Target sequences:                       5350  (1783007 residues)
Passed MSV filter:                       100  (0.0186916); expected 107.0 (0.02)
Passed bias filter:                      100  (0.0186916); expected 107.0 (0.02)
Passed Vit filter:                        20  (0.00373832); expected 5.4 (0.001)
Passed Fwd filter:                         1  (0.000186916); expected 0.1 (1e-05)
Initial search space (Z):               5350  [actual number of targets]
Domain search space  (domZ):               1  [number of targets reported over threshold]
# CPU time: 0.04u 0.03s 00:00:00.07 Elapsed: 00:00:00.07
# Mc/sec: 1477.35
//
