# hmmsearch :: search profile(s) against a sequence database
# HMMER 3.0 (March 2010); http://hmmer.org/
# Copyright (C) 2010 Howard Hughes Medical Institute.
# Freely distributed under the GNU General Public License (GPLv3).
# - - - - - - - - - - - - - - - - - - - - - - - - - - - - - - - - - - - -
# query HMM file:                  /home/user/phage_finder/PHAGE_HMMs_dir/PF05449.HMM
# target sequence database:        /media/sda3/phage_finder/examples_dir/NC_002947_tmp/NC_002947.pep
# - - - - - - - - - - - - - - - - - - - - - - - - - - - - - - - - - - - -

Query:       PF05449  [M=94]
Accession:   PF05449
Description: DUF754: Protein of unknown function (DUF754)
Scores for complete sequences (score includes all domains):
   --- full sequence ---   --- best 1 domain ---    -#dom-
    E-value  score  bias    E-value  score  bias    exp  N  Sequence                    Description
    ------- ------ -----    ------- ------ -----   ---- --  --------                    -----------
  ------ inclusion threshold ------
        5.4    4.1   6.3        8.9    3.4   0.9    2.2  2  nuoA_gi26990813-NC_002947   NADH dehydrogenase I A subunit s


Domain annotation for each sequence (and alignments):
>> nuoA_gi26990813-NC_002947  NADH dehydrogenase I A subunit similar to SP P12321 identified by sequence similarity puta
   #    score  bias  c-Evalue  i-Evalue hmmfrom  hmm to    alifrom  ali to    envfrom  env to     acc
 ---   ------ ----- --------- --------- ------- -------    ------- -------    ------- -------    ----
   1 ?    3.3   0.2    0.0018       9.5      33      44 ..      21      32 ..      20      33 .. 0.90
   2 ?    3.4   0.9    0.0017       8.9      69      81 ..     102     114 ..     101     117 .. 0.89

  Alignments for each domain:
  == domain 1    score: 3.3 bits;  conditional E-value: 0.0018
                    PF05449 33 gvSlLAyLLill 44
                               +v+l+A+ L+l+
  nuoA_gi26990813-NC_002947 21 VVGLCAFMLGLS 32
                               69********98 PP

  == domain 2    score: 3.4 bits;  conditional E-value: 0.0017
                    PF05449  69 evgvnllLcllVl 81 
                                 v++++lL++lV+
  nuoA_gi26990813-NC_002947 102 LVFIAILLAGLVY 114
                                69**********9 PP



Internal pipeline statistics summary:
-------------------------------------
Query model(s):                            1  (94 nodes)
Target sequences:                       5350  (1783007 residues)
Passed MSV filter:                       308  (0.0575701); expected 107.0 (0.02)
Passed bias filter:                      308  (0.0575701); expected 107.0 (0.02)
Passed Vit filter:                        72  (0.0134579); expected 5.4 (0.001)
Passed Fwd filter:                         5  (0.000934579); expected 0.1 (1e-05)
Initial search space (Z):               5350  [actual number of targets]
Domain search space  (domZ):               1  [number of targets reported over threshold]
# CPU time: 0.06u 0.05s 00:00:00.11 Elapsed: 00:00:00.08
# Mc/sec: 2095.03
//
