# hmmsearch :: search profile(s) against a sequence database
# HMMER 3.0 (March 2010); http://hmmer.org/
# Copyright (C) 2010 Howard Hughes Medical Institute.
# Freely distributed under the GNU General Public License (GPLv3).
# - - - - - - - - - - - - - - - - - - - - - - - - - - - - - - - - - - - -
# query HMM file:                  /home/user/phage_finder/PHAGE_HMMs_dir/PF06895.HMM
# target sequence database:        /media/sda3/phage_finder/examples_dir/NC_002947_tmp/NC_002947.pep
# - - - - - - - - - - - - - - - - - - - - - - - - - - - - - - - - - - - -

Query:       PF06895  [M=74]
Accession:   PF06895
Description: DUF1267: Protein of unknown function (DUF1267)
Scores for complete sequences (score includes all domains):
   --- full sequence ---   --- best 1 domain ---    -#dom-
    E-value  score  bias    E-value  score  bias    exp  N  Sequence                  Description
    ------- ------ -----    ------- ------ -----   ---- --  --------                  -----------
  ------ inclusion threshold ------
      0.097   10.1   0.0       0.18    9.2   0.0    1.4  1  rpoX_gi26987687-NC_002947 sigma54 modulation protein similar


Domain annotation for each sequence (and alignments):
>> rpoX_gi26987687-NC_002947  sigma54 modulation protein similar to PIR S06713 GB L10126 GB L31848 SP P36896 PID 338215 
   #    score  bias  c-Evalue  i-Evalue hmmfrom  hmm to    alifrom  ali to    envfrom  env to     acc
 ---   ------ ----- --------- --------- ------- -------    ------- -------    ------- -------    ----
   1 ?    9.2   0.0   3.3e-05      0.18       9      22 ..      20      33 ..      14      44 .. 0.85

  Alignments for each domain:
  == domain 1    score: 9.2 bits;  conditional E-value: 3.3e-05
                    PF06895  9 vLERLARiEtKLDn 22
                               vLE+LAR+E   D 
  rpoX_gi26987687-NC_002947 20 VLEKLARVESHFDK 33
                               9********99996 PP



Internal pipeline statistics summary:
-------------------------------------
Query model(s):                            1  (74 nodes)
Target sequences:                       5350  (1783007 residues)
Passed MSV filter:                       178  (0.033271); expected 107.0 (0.02)
Passed bias filter:                      178  (0.033271); expected 107.0 (0.02)
Passed Vit filter:                        39  (0.00728972); expected 5.4 (0.001)
Passed Fwd filter:                         1  (0.000186916); expected 0.1 (1e-05)
Initial search space (Z):               5350  [actual number of targets]
Domain search space  (domZ):               1  [number of targets reported over threshold]
# CPU time: 0.05u 0.04s 00:00:00.09 Elapsed: 00:00:00.09
# Mc/sec: 1466.03
//
