# hmmsearch :: search profile(s) against a sequence database
# HMMER 3.0 (March 2010); http://hmmer.org/
# Copyright (C) 2010 Howard Hughes Medical Institute.
# Freely distributed under the GNU General Public License (GPLv3).
# - - - - - - - - - - - - - - - - - - - - - - - - - - - - - - - - - - - -
# query HMM file:                  /home/user/phage_finder/PHAGE_HMMs_dir/PF06946.HMM
# target sequence database:        /media/sda3/phage_finder/examples_dir/NC_002947_tmp/NC_002947.pep
# - - - - - - - - - - - - - - - - - - - - - - - - - - - - - - - - - - - -

Query:       PF06946  [M=93]
Accession:   PF06946
Description: Phage_holin_5: Phage holin
Scores for complete sequences (score includes all domains):
   --- full sequence ---   --- best 1 domain ---    -#dom-
    E-value  score  bias    E-value  score  bias    exp  N  Sequence                    Description
    ------- ------ -----    ------- ------ -----   ---- --  --------                    -----------
  ------ inclusion threshold ------
      0.031   11.5   0.3      0.079   10.2   0.2    1.7  1  PP0409_gi26987150-NC_002947 sensory box histidine kinase ide


Domain annotation for each sequence (and alignments):
>> PP0409_gi26987150-NC_002947  sensory box histidine kinase identified by match to TIGR protein family HMM TIGR00229
   #    score  bias  c-Evalue  i-Evalue hmmfrom  hmm to    alifrom  ali to    envfrom  env to     acc
 ---   ------ ----- --------- --------- ------- -------    ------- -------    ------- -------    ----
   1 ?   10.2   0.2   1.5e-05     0.079      64      85 ..     386     407 ..     384     409 .. 0.89

  Alignments for each domain:
  == domain 1    score: 10.2 bits;  conditional E-value: 1.5e-05
                      PF06946  64 iWAGALAGAGGtGLFEqFtnRa 85 
                                  +W GA  GAGG G FE    Ra
  PP0409_gi26987150-NC_002947 386 LWKGARTGAGGVGQFETQCRRA 407
                                  6***************877776 PP



Internal pipeline statistics summary:
-------------------------------------
Query model(s):                            1  (93 nodes)
Target sequences:                       5350  (1783007 residues)
Passed MSV filter:                       211  (0.0394393); expected 107.0 (0.02)
Passed bias filter:                      211  (0.0394393); expected 107.0 (0.02)
Passed Vit filter:                        47  (0.00878505); expected 5.4 (0.001)
Passed Fwd filter:                         3  (0.000560748); expected 0.1 (1e-05)
Initial search space (Z):               5350  [actual number of targets]
Domain search space  (domZ):               1  [number of targets reported over threshold]
# CPU time: 0.05u 0.04s 00:00:00.09 Elapsed: 00:00:00.06
# Mc/sec: 2763.66
//
