# hmmsearch :: search profile(s) against a sequence database
# HMMER 3.0 (March 2010); http://hmmer.org/
# Copyright (C) 2010 Howard Hughes Medical Institute.
# Freely distributed under the GNU General Public License (GPLv3).
# - - - - - - - - - - - - - - - - - - - - - - - - - - - - - - - - - - - -
# query HMM file:                  /home/user/phage_finder/PHAGE_HMMs_dir/PF07131.HMM
# target sequence database:        /media/sda3/phage_finder/examples_dir/NC_002947_tmp/NC_002947.pep
# - - - - - - - - - - - - - - - - - - - - - - - - - - - - - - - - - - - -

Query:       PF07131  [M=61]
Accession:   PF07131
Description: DUF1382: Protein of unknown function (DUF1382)
Scores for complete sequences (score includes all domains):
   --- full sequence ---   --- best 1 domain ---    -#dom-
    E-value  score  bias    E-value  score  bias    exp  N  Sequence                    Description
    ------- ------ -----    ------- ------ -----   ---- --  --------                    -----------
    0.00091   17.2   0.0     0.0012   16.8   0.0    1.2  1  PP5237_gi26991913-NC_002947 hypothetical protein similar to 
  ------ inclusion threshold ------
       0.12   10.3   0.0       0.25    9.3   0.0    1.4  1  zwf_3_gi26992027-NC_002947  glucose-6-phosphate 1-dehydrogen
       0.24    9.4   1.1       0.92    7.5   0.0    2.3  3  PP3923_gi26990628-NC_002947 phosphoglycerate mutase family p


Domain annotation for each sequence (and alignments):
>> PP5237_gi26991913-NC_002947  hypothetical protein similar to SP P57015 identified by sequence similarity putative
   #    score  bias  c-Evalue  i-Evalue hmmfrom  hmm to    alifrom  ali to    envfrom  env to     acc
 ---   ------ ----- --------- --------- ------- -------    ------- -------    ------- -------    ----
   1 !   16.8   0.0   6.8e-07    0.0012      12      48 ..       2      33 ..       1      36 [. 0.88

  Alignments for each domain:
  == domain 1    score: 16.8 bits;  conditional E-value: 6.8e-07
                      PF07131 12 siemAHsLAqiGvRFvPiPvEtDEEFHtLAasLsqKL 48
                                 s+ + Hs Aq+Gv    + vEtD     LA  Ls KL
  PP5237_gi26991913-NC_002947  2 SLALVHSRAQVGVQAPAVSVETD-----LANGLSGKL 33
                                 77899*****************9.....777777776 PP

>> zwf_3_gi26992027-NC_002947  glucose-6-phosphate 1-dehydrogenase similar to GB X04409 GB X56009 GB M21139 GB M21740 GB
   #    score  bias  c-Evalue  i-Evalue hmmfrom  hmm to    alifrom  ali to    envfrom  env to     acc
 ---   ------ ----- --------- --------- ------- -------    ------- -------    ------- -------    ----
   1 ?    9.3   0.0   0.00014      0.25       8      32 ..     336     360 ..     332     361 .. 0.91

  Alignments for each domain:
  == domain 1    score: 9.3 bits;  conditional E-value: 0.00014
                     PF07131   8 ELRtsiemAHsLAqiGvRFvPiPvE 32 
                                  LRt   mA    qi + F P+P E
  zwf_3_gi26992027-NC_002947 336 YLRTGKRMARRASQIVIQFKPVPHE 360
                                 69*********************77 PP

>> PP3923_gi26990628-NC_002947  phosphoglycerate mutase family protein identified by match to TIGR protein family HMM TI
   #    score  bias  c-Evalue  i-Evalue hmmfrom  hmm to    alifrom  ali to    envfrom  env to     acc
 ---   ------ ----- --------- --------- ------- -------    ------- -------    ------- -------    ----
   1 ?    7.5   0.0   0.00051      0.92       5      25 ..      23      43 ..      21      45 .. 0.95
   2 ?   -0.5   0.0      0.15   2.7e+02      28      37 ..      72      82 ..      70      87 .. 0.79
   3 ?   -3.5   0.0       1.3   2.4e+03      41      46 ..     200     205 ..     198     206 .. 0.81

  Alignments for each domain:
  == domain 1    score: 7.5 bits;  conditional E-value: 0.00051
                      PF07131  5 ssvELRtsiemAHsLAqiGvR 25
                                 s+v +R s  +   LAq+GvR
  PP3923_gi26990628-NC_002947 23 SPVGVRQSQALGEHLAQLGVR 43
                                 99******************9 PP

  == domain 2    score: -0.5 bits;  conditional E-value: 0.15
                      PF07131 28 PiP.vEtDEEF 37
                                 P+P vEtD  F
  PP3923_gi26990628-NC_002947 72 PVPaVETDAAF 82
                                 77779***887 PP

  == domain 3    score: -3.5 bits;  conditional E-value: 1.3
                      PF07131  41 AasLsq 46 
                                   +sLsq
  PP3923_gi26990628-NC_002947 200 NTSLSQ 205
                                  589999 PP



Internal pipeline statistics summary:
-------------------------------------
Query model(s):                            1  (61 nodes)
Target sequences:                       5350  (1783007 residues)
Passed MSV filter:                        99  (0.0185047); expected 107.0 (0.02)
Passed bias filter:                       99  (0.0185047); expected 107.0 (0.02)
Passed Vit filter:                        20  (0.00373832); expected 5.4 (0.001)
Passed Fwd filter:                         3  (0.000560748); expected 0.1 (1e-05)
Initial search space (Z):               5350  [actual number of targets]
Domain search space  (domZ):               3  [number of targets reported over threshold]
# CPU time: 0.04u 0.04s 00:00:00.08 Elapsed: 00:00:00.05
# Mc/sec: 2175.27
//
