# hmmsearch :: search profile(s) against a sequence database
# HMMER 3.0 (March 2010); http://hmmer.org/
# Copyright (C) 2010 Howard Hughes Medical Institute.
# Freely distributed under the GNU General Public License (GPLv3).
# - - - - - - - - - - - - - - - - - - - - - - - - - - - - - - - - - - - -
# query HMM file:                  /home/user/phage_finder/PHAGE_HMMs_dir/TIGR02225.HMM
# target sequence database:        /media/sda3/phage_finder/examples_dir/NC_002947_tmp/NC_002947.pep
# - - - - - - - - - - - - - - - - - - - - - - - - - - - - - - - - - - - -

Query:       TIGR02225  [M=305]
Accession:   TIGR02225
Description: recomb_XerD: tyrosine recombinase XerD
Scores for complete sequences (score includes all domains):
   --- full sequence ---   --- best 1 domain ---    -#dom-
    E-value  score  bias    E-value  score  bias    exp  N  Sequence                    Description
    ------- ------ -----    ------- ------ -----   ---- --  --------                    -----------
   1.9e-183  609.5   8.1   2.1e-183  609.4   5.6    1.0  1  xerD_gi26988201-NC_002947   integrase/recombinase XerD simil
      1e-82  276.1  21.9    6.2e-54  180.9   2.7    2.3  2  xerC_gi26991906-NC_002947   integrase/recombinase XerC simil
    6.1e-11   38.6   1.9    9.2e-11   38.1   0.0    2.1  2  PP2841_gi26989560-NC_002947 site-specific recombinase phage 
  ------ inclusion threshold ------
      0.025   10.1   0.1      0.038    9.5   0.1    1.2  1  PP3791_gi26990496-NC_002947 site-specific recombinase phage 


Domain annotation for each sequence (and alignments):
>> xerD_gi26988201-NC_002947  integrase/recombinase XerD similar to GP 9949906 GB D00173 GB S46963 SP P11712 SP P11713 S
   #    score  bias  c-Evalue  i-Evalue hmmfrom  hmm to    alifrom  ali to    envfrom  env to     acc
 ---   ------ ----- --------- --------- ------- -------    ------- -------    ------- -------    ----
   1 !  609.4   5.6  1.6e-186  2.1e-183       1     305 []      10     298 .]      10     298 .] 1.00

  Alignments for each domain:
  == domain 1    score: 609.4 bits;  conditional E-value: 1.6e-186
                  TIGR02225   1 ddFLdyLwvErGLsqNTleaYrrDLekfleyLeeserg.dlaevdrgdiedflaeLkeaGlsarSiARalSalRsFyrFLlreg 83 
                                d+FLd+Lw+E+GLs+NT+ +Yr+DL  f  +L+  e++ +l +++r+ i d+la++ ++G+++rS+AR+lS lR+F+r+Llre+
  xerD_gi26988201-NC_002947  10 DQFLDALWLEKGLSDNTRVSYRSDLALFNGWLQ--EHSvSLPDAGRDLILDHLAWRLDQGYKPRSTARFLSGLRGFFRYLLREK 91 
                                89*******************************..99*********************************************** PP

                  TIGR02225  84 lredDPsalrietPKvarkLPkvLTveEVeaLLaaPidvdtplggkrpalRDrAmLElLYATGLRVSELvgLrleDvnldegvk 167
                                l+  DP+++ +++P+++++LPk+L++++VeaLL+aP d+  + g     +RDrAmLE+LYA+GLRV+ELv+L+l++vnl++gv 
  xerD_gi26988201-NC_002947  92 LVAIDPTLQ-VDMPQLGKPLPKSLSEADVEALLQAP-DLGEAIG-----QRDRAMLEVLYACGLRVTELVSLTLDQVNLRQGV- 167
                                *********.**************************.*******.....**********************************. PP

                  TIGR02225 168 vrkVrGKGsKERlVPlGeeAieaLerYLkeaRplllkkkkkssdaksaLFlnrreGgpLsRQgfWkilKeyAkrAGIekpiSPH 251
                                +r V+GKGsKERlVP+GeeA+ +LerY +++R +ll+++  +sd+   LF+++r G++++RQ+fW+++K++A+ AGI+kp+SPH
  xerD_gi26988201-NC_002947 168 LR-VMGKGSKERLVPMGEEAVVWLERYQRDGRAELLNGR--PSDV---LFPSQR-GEQMTRQTFWHRIKHHARVAGIDKPLSPH 244
                                **.*********************************999..****...******.***************************** PP

                  TIGR02225 252 tLRHSFATHLLenGADLRvVQeLLGHaDIsTTQIYTHVarerLkevhkkhHPRa 305
                                tLRH+FATHLL++GADLRvVQ+LLGH+D+sTTQIYTHVa+ rL+ +h++hHPR+
  xerD_gi26988201-NC_002947 245 TLRHAFATHLLNHGADLRVVQMLLGHSDLSTTQIYTHVAKARLQQLHAQHHPRG 298
                                *****************************************************7 PP

>> xerC_gi26991906-NC_002947  integrase/recombinase XerC similar to GB M62866 SP P29929 and PID 151154 identified by seq
   #    score  bias  c-Evalue  i-Evalue hmmfrom  hmm to    alifrom  ali to    envfrom  env to     acc
 ---   ------ ----- --------- --------- ------- -------    ------- -------    ------- -------    ----
   1 !  180.9   2.7   4.6e-57   6.2e-54       2     227 ..       7     214 ..       6     214 .. 0.97
   2 !  100.9   7.1     7e-33   9.4e-30     248     305 .]     234     291 ..     230     291 .. 0.98

  Alignments for each domain:
  == domain 1    score: 180.9 bits;  conditional E-value: 4.6e-57
                  TIGR02225   2 dFLdyLwvErGLsqNTleaYrrDLekfleyLeeserg..dlaevdrgdiedflaeLkeaGlsarSiARalSalRsFyrFLlreg 83 
                                 +  +L+ Er +s++T   YrrDLek  +y e  e+g  d+++++ + ++  +a L+  G+s+rS+AR lSa+R++yr+L reg
  xerC_gi26991906-NC_002947   7 AYCAHLRNERQVSEHTSQGYRRDLEKVIAYCE--EHGiaDWQALQIQQLRQLIARLHHHGQSPRSLARLLSAVRGLYRYLNREG 88 
                                6889****************************..88889********************************************* PP

                  TIGR02225  84 lredDPsalrietPKvarkLPkvLTveEVeaLLaaPidvdtplggkrpalRDrAmLElLYATGLRVSELvgLrleDvnldegvk 167
                                l ++DP+   +++PK +r+LPkvL  +   +LL+    vd+ +     a RD+A+LEl Y++GLR SEL +L l++++l +g  
  xerC_gi26991906-NC_002947  89 LCQHDPANG-LSAPKGERRLPKVLDTDRALQLLDG--GVDDDFI----ARRDQAILELFYSSGLRLSELTNLDLDHLDLAAGL- 164
                                *********.*************************..8999999....6**********************************. PP

                  TIGR02225 168 vrkVrGKGsKERlVPlGeeAieaLerYLkeaRplllkkkkkssdaksaLFlnrreGgpLs 227
                                v+ V+GKG+K R+ P+G++A+eaL++ ++ +      + +++  a   +F++r+ G ++s
  xerC_gi26991906-NC_002947 165 VQ-VLGKGGKARVLPVGRKAREALQAWYRLRGI----G-NPRDRA---VFITRQ-GNRIS 214
                                **.**************************9998....4.478888...******.**998 PP

  == domain 2    score: 100.9 bits;  conditional E-value: 7e-33
                  TIGR02225 248 iSPHtLRHSFATHLLenGADLRvVQeLLGHaDIsTTQIYTHVarerLkevhkkhHPRa 305
                                ++PH+LRHSFA+H Le+  DLR+VQe+LGHaDIsTTQIYTH + ++L+ v+  +HPRa
  xerC_gi26991906-NC_002947 234 LHPHMLRHSFASHVLESSQDLRAVQEMLGHADISTTQIYTHLDFQHLAAVYDSAHPRA 291
                                79*******************************************************8 PP

>> PP2841_gi26989560-NC_002947  site-specific recombinase phage integrase family similar to GP 2625019 identified by seq
   #    score  bias  c-Evalue  i-Evalue hmmfrom  hmm to    alifrom  ali to    envfrom  env to     acc
 ---   ------ ----- --------- --------- ------- -------    ------- -------    ------- -------    ----
   1 !   38.1   0.0   6.9e-14   9.2e-11     124     176 ..     122     167 ..     112     169 .. 0.89
   2 ?   -2.7   1.6      0.14   1.9e+02     277     286 ..     266     275 ..     266     275 .. 0.97

  Alignments for each domain:
  == domain 1    score: 38.1 bits;  conditional E-value: 6.9e-14
                    TIGR02225 124 tplggkrpalRDrAmLElLYATGLRVSELvgLrleDvnldegvkvrkVrGKGs 176
                                   p g     +RD A++ lLY TG+R SE v   l++v++++++ ++ V GKG+
  PP2841_gi26989560-NC_002947 122 RPQG-----VRDAAIIALLYGTGMRKSESVDIDLDQVDFEARS-LQ-VVGKGN 167
                                  4566.....**********************************.**.*****9 PP

  == domain 2    score: -2.7 bits;  conditional E-value: 0.14
                    TIGR02225 277 HaDIsTTQIY 286
                                  Ha+I+TT IY
  PP2841_gi26989560-NC_002947 266 HANIQTTAIY 275
                                  *******999 PP

>> PP3791_gi26990496-NC_002947  site-specific recombinase phage integrase family identified by match to PFAM protein fam
   #    score  bias  c-Evalue  i-Evalue hmmfrom  hmm to    alifrom  ali to    envfrom  env to     acc
 ---   ------ ----- --------- --------- ------- -------    ------- -------    ------- -------    ----
   1 ?    9.5   0.1   2.9e-05     0.038     267     278 ..     172     183 ..     172     187 .. 0.94

  Alignments for each domain:
  == domain 1    score: 9.5 bits;  conditional E-value: 2.9e-05
                    TIGR02225 267 DLRvVQeLLGHa 278
                                  +LR+VQ LLGH+
  PP3791_gi26990496-NC_002947 172 NLRAVQLLLGHT 183
                                  7**********7 PP



Internal pipeline statistics summary:
-------------------------------------
Query model(s):                            1  (305 nodes)
Target sequences:                       5350  (1783007 residues)
Passed MSV filter:                       176  (0.0328972); expected 107.0 (0.02)
Passed bias filter:                      176  (0.0328972); expected 107.0 (0.02)
Passed Vit filter:                        32  (0.00598131); expected 5.4 (0.001)
Passed Fwd filter:                         4  (0.000747664); expected 0.1 (1e-05)
Initial search space (Z):               5350  [actual number of targets]
Domain search space  (domZ):               4  [number of targets reported over threshold]
# CPU time: 0.14u 0.02s 00:00:00.16 Elapsed: 00:00:00.10
# Mc/sec: 5438.17
//
