# hmmsearch :: search profile(s) against a sequence database
# HMMER 3.0 (March 2010); http://hmmer.org/
# Copyright (C) 2010 Howard Hughes Medical Institute.
# Freely distributed under the GNU General Public License (GPLv3).
# - - - - - - - - - - - - - - - - - - - - - - - - - - - - - - - - - - - -
# query HMM file:                  /home/user/phage_finder/PHAGE_HMMs_dir/TIGR01593.HMM
# target sequence database:        /media/sda3/phage_finder/examples_dir/NC_002947_tmp/NC_002947.pep
# - - - - - - - - - - - - - - - - - - - - - - - - - - - - - - - - - - - -

Query:       TIGR01593  [M=137]
Accession:   TIGR01593
Description: holin_tox_secr: toxin secretion/phage lysis holin
Scores for complete sequences (score includes all domains):
   --- full sequence ---   --- best 1 domain ---    -#dom-
    E-value  score  bias    E-value  score  bias    exp  N  Sequence                    Description
    ------- ------ -----    ------- ------ -----   ---- --  --------                    -----------

   [No hits detected that satisfy reporting thresholds]


Domain annotation for each sequence (and alignments):

   [No targets detected that satisfy reporting thresholds]


Internal pipeline statistics summary:
-------------------------------------
Query model(s):                            1  (137 nodes)
Target sequences:                       5350  (1783007 residues)
Passed MSV filter:                       182  (0.0340187); expected 107.0 (0.02)
Passed bias filter:                      182  (0.0340187); expected 107.0 (0.02)
Passed Vit filter:                        37  (0.00691589); expected 5.4 (0.001)
Passed Fwd filter:                         5  (0.000934579); expected 0.1 (1e-05)
Initial search space (Z):               5350  [actual number of targets]
Domain search space  (domZ):               0  [number of targets reported over threshold]
# CPU time: 0.12u 0.04s 00:00:00.16 Elapsed: 00:00:00.15
# Mc/sec: 1628.48
//
