# hmmsearch :: search profile(s) against a sequence database
# HMMER 3.0 (March 2010); http://hmmer.org/
# Copyright (C) 2010 Howard Hughes Medical Institute.
# Freely distributed under the GNU General Public License (GPLv3).
# - - - - - - - - - - - - - - - - - - - - - - - - - - - - - - - - - - - -
# query HMM file:                  /home/user/phage_finder/PHAGE_HMMs_dir/TIGR01611.HMM
# target sequence database:        /media/sda3/phage_finder/examples_dir/NC_002947_tmp/NC_002947.pep
# - - - - - - - - - - - - - - - - - - - - - - - - - - - - - - - - - - - -

Query:       TIGR01611  [M=170]
Accession:   TIGR01611
Description: tail_tube: phage major tail tube protein
Scores for complete sequences (score includes all domains):
   --- full sequence ---   --- best 1 domain ---    -#dom-
    E-value  score  bias    E-value  score  bias    exp  N  Sequence                    Description
    ------- ------ -----    ------- ------ -----   ---- --  --------                    -----------
    1.5e-86  288.5   1.6    1.7e-86  288.3   1.1    1.0  1  gpFII_gi26989779-NC_002947  pyocin R2_PP tail tube protein S
  ------ inclusion threshold ------
      0.058    9.7   0.0      0.094    9.0   0.0    1.3  1  PP3097_gi26989816-NC_002947 hypothetical protein identified 


Domain annotation for each sequence (and alignments):
>> gpFII_gi26989779-NC_002947  pyocin R2_PP tail tube protein See PMID 11069649 PRF18 similar to PIR JC5192 SP P07129 GB
   #    score  bias  c-Evalue  i-Evalue hmmfrom  hmm to    alifrom  ali to    envfrom  env to     acc
 ---   ------ ----- --------- --------- ------- -------    ------- -------    ------- -------    ----
   1 !  288.3   1.1   6.3e-90   1.7e-86       2     170 .]       4     169 .]       3     169 .] 1.00

  Alignments for each domain:
  == domain 1    score: 288.3 bits;  conditional E-value: 6.3e-90
                   TIGR01611   2 lprlLknlNlFiDGvnyaGevEeinLPKLalKtEEyRAGGMvgpVeldMGlEKLEaeislngFyrreaLklfGvtkskalncr 84 
                                 +p++L n+NlF+DG+++ G+v++++LPKL+lK EEyR GGM+ p+e+d G+EK+Ea +++ g  r + Lk+fG++++ a+n++
  gpFII_gi26989779-NC_002947   4 IPQILANTNLFVDGKSFQGDVPSLTLPKLTLKIEEYRPGGMDMPIEMDVGMEKMEANFTTTG-VRKDSLKFFGLADGNAFNGV 85 
                                 7*************************************************************.******************** PP

                   TIGR01611  85 SfrGayksqdlgdeiplvivLRGklKEiDlGTwKageKAeFKlalaltYYKqvvdGeellElDyvNnifrvnGvDqLAdaRna 167
                                  frG++k q+ g++ ++v++LRG lKE D+G+wKag+KAe+K  +a+tYYK++v Ge+++E+D+v + +++nG DqLA +R +
  gpFII_gi26989779-NC_002947  86 -FRGSFKIQK-GETLAVVVTLRGTLKELDMGDWKAGDKAELKHGIAVTYYKLEVGGEVIYEIDPVGMKRVINGTDQLASQRAD 166
                                 .*********.************************************************************************ PP

                   TIGR01611 168 lGL 170
                                 lGL
  gpFII_gi26989779-NC_002947 167 LGL 169
                                 **8 PP

>> PP3097_gi26989816-NC_002947  hypothetical protein identified by Glimmer2 putative
   #    score  bias  c-Evalue  i-Evalue hmmfrom  hmm to    alifrom  ali to    envfrom  env to     acc
 ---   ------ ----- --------- --------- ------- -------    ------- -------    ------- -------    ----
   1 ?    9.0   0.0   3.5e-05     0.094     138     162 ..     347     371 ..     345     373 .. 0.94

  Alignments for each domain:
  == domain 1    score: 9.0 bits;  conditional E-value: 3.5e-05
                    TIGR01611 138 vdGeellElDyvNnifrvnGvDqLA 162
                                  +++ e+  +D v  +++ +G+Dq A
  PP3097_gi26989816-NC_002947 347 HNAAEVVSIDRVRRVRKLGGIDQVA 371
                                  9**********************87 PP



Internal pipeline statistics summary:
-------------------------------------
Query model(s):                            1  (170 nodes)
Target sequences:                       5350  (1783007 residues)
Passed MSV filter:                       100  (0.0186916); expected 107.0 (0.02)
Passed bias filter:                      100  (0.0186916); expected 107.0 (0.02)
Passed Vit filter:                        24  (0.00448598); expected 5.4 (0.001)
Passed Fwd filter:                         2  (0.000373832); expected 0.1 (1e-05)
Initial search space (Z):               5350  [actual number of targets]
Domain search space  (domZ):               2  [number of targets reported over threshold]
# CPU time: 0.06u 0.06s 00:00:00.12 Elapsed: 00:00:00.11
# Mc/sec: 2755.56
//
