# hmmsearch :: search profile(s) against a sequence database
# HMMER 3.0 (March 2010); http://hmmer.org/
# Copyright (C) 2010 Howard Hughes Medical Institute.
# Freely distributed under the GNU General Public License (GPLv3).
# - - - - - - - - - - - - - - - - - - - - - - - - - - - - - - - - - - - -
# query HMM file:                  /home/user/phage_finder/PHAGE_HMMs_dir/TIGR02220.HMM
# target sequence database:        /media/sda3/phage_finder/examples_dir/NC_002947_tmp/NC_002947.pep
# - - - - - - - - - - - - - - - - - - - - - - - - - - - - - - - - - - - -

Query:       TIGR02220  [M=83]
Accession:   TIGR02220
Description: phg_TIGR02220: phage conserved hypothetical protein, C-terminal domain
Scores for complete sequences (score includes all domains):
   --- full sequence ---   --- best 1 domain ---    -#dom-
    E-value  score  bias    E-value  score  bias    exp  N  Sequence                    Description
    ------- ------ -----    ------- ------ -----   ---- --  --------                    -----------
  ------ inclusion threshold ------
      0.023   11.7   0.3      0.034   11.2   0.2    1.3  1  PP3332_gi26990049-NC_002947 cytochrome c-type protein simila


Domain annotation for each sequence (and alignments):
>> PP3332_gi26990049-NC_002947  cytochrome c-type protein similar to GP 9951825 identified by sequence similarity putati
   #    score  bias  c-Evalue  i-Evalue hmmfrom  hmm to    alifrom  ali to    envfrom  env to     acc
 ---   ------ ----- --------- --------- ------- -------    ------- -------    ------- -------    ----
   1 ?   11.2   0.2   6.3e-06     0.034      37      49 ..      84      96 .]      81      96 .] 0.89

  Alignments for each domain:
  == domain 1    score: 11.2 bits;  conditional E-value: 6.3e-06
                    TIGR02220 37 LEDFKkVIDnkvs 49
                                  +D K+VID++++
  PP3332_gi26990049-NC_002947 84 ADDYKAVIDYMSK 96
                                 59*********97 PP



Internal pipeline statistics summary:
-------------------------------------
Query model(s):                            1  (83 nodes)
Target sequences:                       5350  (1783007 residues)
Passed MSV filter:                        96  (0.0179439); expected 107.0 (0.02)
Passed bias filter:                       96  (0.0179439); expected 107.0 (0.02)
Passed Vit filter:                        12  (0.00224299); expected 5.4 (0.001)
Passed Fwd filter:                         1  (0.000186916); expected 0.1 (1e-05)
Initial search space (Z):               5350  [actual number of targets]
Domain search space  (domZ):               1  [number of targets reported over threshold]
# CPU time: 0.04u 0.03s 00:00:00.07 Elapsed: 00:00:00.09
# Mc/sec: 1644.33
//
